Analyze calls by peak detection. — analyze_peaks • CNAqc
…
#>  9  0.18  2.13             40 FALSE     KDE   3:2       1625   
#> 10  0.37  4.39             94 FALSE     KDE   3:2       1625   
#> 11  0.56  1.61             33 FALSE     KDE   3:2       1625   
#> 12  0.06  0.89             18 FALSE     KDE   4:2       1893   
#> 13  0.15  1.62             30 FALSE     KDE   4:2       1893   
#> 14  0.31  7.93            158 FALSE     KDE   4:2       1893   
#> 15  0.49  0.03              1 TRUE      KDE   4:2       1893   
#> 16  0.64  1.65             34 FALSE     KDE   4:2       1893   
#> 17  0.85  0                 0 TRUE      KDE   4:2       1893   
#> 18  0.86  0                 0 TRUE      KDE   4:2       1893   
#> 19  0.88  0                 0 TRUE      KDE   4:2       1893   
#> 20  1     0.02              1 TRUE      KDE   4:2       1893   
#> 
#> $general$data_densities
#> # A tibble: 1,536 × 4
#>          x       y karyotype n      
#>      <dbl>   <dbl> <chr>     <table>
#>  1 0.00120 0.00319 3:0       312    
#>  2 0.00325 0.00479 3:0       312    
#>  3 0.00530 0.00706 3:0       312    
#>  4 0.00735 0.0102  3:0       312    
#>  5 0.00940 0.0146  3:0       312    
#>  6 0.0115  0.0204  3:0       312    
#>  7 0.0135  0.0282  3:0       312    
#>  8 0.0155  0.0383  3:0       312    
#>  9 0.0176  0.0512  3:0       312    
#> 10 0.0196  0.0675  3:0       312    
#> # … with 1,526 more rows
…
