Determines fragmentation of copy number segments — detect_arm_overfragmentation • CNAqc
…
#> $reference_genome
#> [1] "GRCh38"
#> 
#> $snvs
#> # A tibble: 12,963 x 17
#>    chr      from      to ref   alt   FILTER    DP    NV    VAF ANNOVAR_FUNCTION
#>    <chr>   <dbl>   <dbl> <chr> <chr> <chr>  <dbl> <dbl>  <dbl> <chr>           
#>  1 chr1  1027104 1027105 T     G     PASS      60     6 0.1    UTR5            
#>  2 chr1  2248588 2248589 A     C     PASS     127     9 0.0709 intergenic      
#>  3 chr1  2461999 2462000 G     A     PASS     156    65 0.417  upstream        
#>  4 chr1  2727935 2727936 T     C     PASS     180    90 0.5    downstream      
#>  5 chr1  2763397 2763398 C     T     PASS     183    61 0.333  intergenic      
#>  6 chr1  2768208 2768209 C     T     PASS     203   130 0.640  intergenic      
#>  7 chr1  2935590 2935591 C     T     PASS     228   132 0.579  intergenic      
#>  8 chr1  2980032 2980033 C     T     PASS     196    85 0.434  ncRNA_exonic    
#>  9 chr1  3387161 3387162 T     G     PASS     124     6 0.0484 intronic        
#> 10 chr1  3502517 3502518 G     A     PASS      88    10 0.114  intronic        
#> # … with 12,953 more rows, and 7 more variables: GENE <chr>, is_driver <lgl>,
#> #   driver_label <chr>, gene <chr>, type <chr>, karyotype <chr>,
#> #   segment_id <chr>
#> 
#> $cna
#> # A tibble: 267 x 10
#>    chr      from      to length covRatio Major minor   CCF segment_id          n
#>    <chr>   <int>   <int>  <int>    <dbl> <dbl> <dbl> <dbl> <chr>           <int>
#>  1 chr1   8.40e5  1.69e6 8.50e5     1.19     3     2     1 chr1:840009:16…     1
#>  2 chr1   1.69e6  1.82e6 1.25e5     1.26     3     2     1 chr1:1689988:1…    NA
#>  3 chr1   1.82e6  9.80e6 7.98e6     1.19     3     2     1 chr1:1815016:9…    28
#>  4 chr1   1.05e7  1.21e7 1.60e6     1.19     3     2     1 chr1:10479910:…     1
#>  5 chr1   1.21e7  1.22e7 7.51e4     1.24     3     2     1 chr1:12079917:…    NA
#>  6 chr1   1.22e7  1.28e7 6.85e5     1.19     3     2     1 chr1:12154981:…    NA
#>  7 chr1   1.38e7  1.78e7 4.01e6     1.19     3     2     1 chr1:13780016:…     7
#>  8 chr1   1.78e7  2.11e7 3.23e6     1.19     3     2     1 chr1:17849962:…    12
#>  9 chr1   2.11e7  2.16e7 4.80e5     1.26     3     2     1 chr1:21080068:…    NA
#> 10 chr1   2.16e7  2.48e7 3.27e6     1.19     3     2     1 chr1:21559998:…    11
#> # … with 257 more rows
…
#>  8     2    25     517926 25:2     
#>  9     1   106     225714 106:1    
#> 10     0     5     174002 5:0      
#> 11     2    69     172894 69:2     
#> 12     2    26     162913 26:2     
#> 13     2    16     130712 16:2     
#> 14     2    70      80103 70:2     
#> 15     1    99      75782 99:1     
#> 
#> $most_mutations_karyotype
#> [1] "2:2"
#> 
#> $arm_fragmentation
#> $arm_fragmentation$table
#> # A tibble: 41 x 10
#>    chr   arm   n_long n_short jumps total_segments testable  p_value
#>    <chr> <chr>  <dbl>   <dbl> <dbl>          <dbl> <lgl>       <dbl>
#>  1 chr7  p          0      34   206             34 TRUE     1.72e-24
#>  2 chr1  p          1      23     0             24 TRUE     1.63e-15
#>  3 chr1  q          1      12     5             13 TRUE     4.34e- 8
#>  4 chr12 q          1      12   414             13 TRUE     4.34e- 8
#>  5 chr11 q          2      12     0             14 TRUE     2.48e- 7
#>  6 chr8  p          1      10     0             11 TRUE     9.22e- 7
#>  7 chr3  q          2      10     2             12 TRUE     4.53e- 6
#>  8 chr7  q          2      10     3             12 TRUE     4.53e- 6
#>  9 chr11 p          1       8     0              9 FALSE    1.00e+ 0
#> 10 chr15 q          2       7     4              9 FALSE    1.00e+ 0
#> # … with 31 more rows, and 2 more variables: Bonferroni_cutoff <dbl>,
#> #   significant <lgl>
…
