Driver mutations released with the DriverDBv3 database http://driverdb.tms.cmu.edu.tw/ — DriverDBv3 • CNAqc
…
    Format

    A tibble.

    References

    ??

    Examples

data(DriverDBv3)
DriverDBv3

#> # A tibble: 719 x 3
#> # Groups:   driver_gene [471]
#>    driver_gene cancer                                        n_tools
#>    <chr>       <chr>                                           <int>
#>  1 ABCA10      Breast_invasive_carcinoma(TCGA,US)                  5
#>  2 ACTB        Bladder_urothelial_carcinoma(TCGA,US)               5
#>  3 ACVR1B      Colon_adenocarcinoma(TCGA,US)                       4
#>  4 ACVR2A      Colon_adenocarcinoma(TCGA,US)                       6
#>  5 ACVR2A      Stomach_adenocarcinoma(TCGA,US)                     6
#>  6 ACVR2A      Uterine_corpus_endometrial_carcinoma(TCGA,US)       5
#>  7 ADAMTS16    Colon_adenocarcinoma(TCGA,US)                       4
#>  8 ADGRV1      Glioblastoma_multiforme(TCGA,US)                    4
#>  9 AFP         Lung_adenocarcinoma(TCGA,US)                        4
#> 10 AGAP4       Prostate_adenocarcinoma(TCGA,US)                    4
#> # … with 709 more rows
…
