Extract mutations. — Mutations • CNAqc
…
cna
"clonal" for clonal CNAs, "subclonal" for subclonal CNAs.

type
"SNV" for single-nucleotide variants, "indel" for insertion-deletions.

    Value

A tibble with the data.

    Examples

data("example_PCAWG", package = 'CNAqc')
Mutations(example_PCAWG)
#> # A tibble: 293,736 × 58
#>    chr        from      to ref   alt      NV    DP    VAF sample icgc_…¹ proje…²
#>    <chr>     <dbl>   <dbl> <chr> <chr> <dbl> <dbl>  <dbl> <chr>  <chr>   <chr>  
#>  1 chr1  149665366  1.50e8 G     A        71   320 0.222  51893… DO2209… MELA-AU
#>  2 chr1  149672877  1.50e8 C     T        28   116 0.241  51893… DO2209… MELA-AU
#>  3 chr1  149684625  1.50e8 C     T         9   151 0.0596 51893… DO2209… MELA-AU
#>  4 chr1  149691693  1.50e8 G     A        57   175 0.326  51893… DO2209… MELA-AU
#>  5 chr1  149703118  1.50e8 G     A        17   120 0.142  51893… DO2209… MELA-AU
#>  6 chr1  149705313  1.50e8 C     T        63   147 0.429  51893… DO2209… MELA-AU
#>  7 chr1  149718385  1.50e8 G     A        48   187 0.257  51893… DO2209… MELA-AU
#>  8 chr1  149722228  1.50e8 G     A        79   133 0.594  51893… DO2209… MELA-AU
#>  9 chr1  149729318  1.50e8 G     A        10   165 0.0606 51893… DO2209… MELA-AU
#> 10 chr1  149730287  1.50e8 T     A        53   259 0.205  51893… DO2209… MELA-AU
#> # … with 293,726 more rows, 47 more variables: icgc_specimen_id <chr>,
#> #   icgc_sample_id <chr>, submitted_sample_id <chr>,
#> #   submitted_matched_sample_id <chr>, chromosome_strand <dbl>,
#> #   assembly_version <chr>, mutation_type <chr>, reference_genome_allele <chr>,
#> #   quality_score <lgl>, probability <lgl>, verification_status <chr>,
#> #   verification_platform <lgl>, biological_validation_status <chr>,
#> #   biological_validation_platform <lgl>, gene_build_version <dbl>, …
…
