3. QC analysis via peaks detection • CNAqc
…
# Complex clonal CNAs
x$peaks_analysis$general$expected_peaks
#> # A tibble: 40 × 9
#>    minor Major ploidy multiplicity purity  peak karyotype matched n      
#>    <dbl> <dbl>  <dbl>        <int>  <dbl> <dbl> <chr>     <lgl>   <table>
#>  1     2     4      6            1  0.734 0.149 4:2       TRUE    1441   
#>  2     2     4      6            2  0.734 0.297 4:2       TRUE    1441   
#>  3     2     4      6            3  0.734 0.446 4:2       FALSE   1441   
#>  4     2     4      6            4  0.734 0.595 4:2       TRUE    1441   
#>  5     2     5      7            1  0.734 0.129 5:2       FALSE    132   
#>  6     2     5      7            2  0.734 0.259 5:2       TRUE     132   
#>  7     2     5      7            3  0.734 0.388 5:2       TRUE     132   
#>  8     2     5      7            4  0.734 0.518 5:2       FALSE    132   
#>  9     2     5      7            5  0.734 0.647 5:2       TRUE     132   
#> 10     0     4      4            1  0.734 0.212 4:0       TRUE    1752   
#> # … with 30 more rows

# Subclonal CNAs
x$peaks_analysis$subclonal$expected_peaks
#> # A tibble: 91 × 16
#>    mutation karyotype_1 genotype_1 karyotype_2 genotype_2 n.clone_1 n.clone_2
#>    <chr>    <chr>       <chr>      <chr>       <chr>          <int>     <int>
#>  1 RLZTVJRP 2:1         A1A2B1     <NA>        <NA>               1         0
#>  2 ASLLFJXT <NA>        <NA>       2:2         A1A2B1B2           0         1
#>  3 MZRDFTAI 2:1         A1A2B1     2:2         A1A2B1B2           1         2
#>  4 ABFAVRWO 2:1         A1A2B1     2:2         A1A2B1B2           2         2
#>  5 HPZQTVZZ <NA>        <NA>       2:2         A1A2B1B2           0         1
#>  6 WUZJLYNX 2:1         A1A2B1     2:2         A1A2B1B2           1         1
#>  7 JWBFLKDT 2:1         A1A2B1     2:2         A1A2B1B2           1         2
#>  8 LBIFOUAO 2:1         A1A2B1     2:2         A1A2B1B2           2         2
#>  9 MCIYFTJM <NA>        <NA>       2:1         A2B1B2             0         1
#> 10 ABFXUOTF 2:2         A1A2B1B2   <NA>        <NA>               1         0
#> # … with 81 more rows, and 9 more variables: peak <dbl>,
#> #   genotype_initial <chr>, model <chr>, model_id <chr>, role <chr>,
#> #   segment_id <chr>, matched <lgl>, size <chr>, clones <chr>
…
