4. Computation of Cancer Cell Fractions • CNAqc
…
A tibble of CCF values (getter function CCF) reports the computed values in column "CCF", and in column "mutation multiplicity".

# Tibble
CCF(x) %>% select(VAF, mutation_multiplicity, CCF)
#> # A tibble: 9,122 × 3
#>      VAF mutation_multiplicity   CCF
#>    <dbl>                 <dbl> <dbl>
#>  1 0.08                      1 0.180
#>  2 0.883                     2 0.993
#>  3 0.915                     2 1.03 
#>  4 0.895                     2 1.01 
#>  5 0.861                     2 0.968
#>  6 0.471                     1 1.06 
#>  7 0.849                     2 0.954
#>  8 0.785                     2 0.882
#>  9 0.891                     2 1.00 
#> 10 0.815                     2 0.916
#> # … with 9,112 more rows
…
# Recompute CCF values
y_e = compute_CCF(x_s, method = 'ENTROPY', karyotypes = '2:2')
#> ── Computing mutation multiplicity for karyotype 2:2 using the entropy method. ─
#> ℹ Expected Binomial peak(s) for these calls (1 and 2 copies): 0.235449735449735 and 0.470899470899471
#> ℹ Mixing pre/ post aneuploidy: 0.1 and 0.9
#> ℹ Not assignamble area: [0.258823529411765; 0.388235294117647]
y_r = compute_CCF(x_s, method = 'ROUGH', karyotypes = '2:2')
#> ── Computing mutation multiplicity for karyotype 2:2 using raw VAF cuts. ───────
#> ℹ Expected Binomial peak(s) for these calls (1 and 2 copies): 0.235449735449735 and 0.470899470899471.
#> ℹ Mutations per peak: n = 717, n = 6412. The hard cut is t = 0.259130119839897.

CCF(y_e) %>% filter(!is.na(CCF))
#> # A tibble: 7,018 × 19
#>    chr      from      to ref   alt   FILTER    DP    NV    VAF ANNOVAR_FUNCTION
#>    <chr>   <dbl>   <dbl> <chr> <chr> <chr>  <dbl> <dbl>  <dbl> <chr>           
#>  1 chr4    54939   54940 C     A     PASS   431.   26.4 0.0613 intronic        
#>  2 chr4   573969  573970 G     C     PASS    98.4   9.6 0.0976 intergenic      
#>  3 chr4  1108141 1108142 G     A     PASS    94.2  39.6 0.420  ncRNA_intronic  
#>  4 chr4  1395352 1395353 C     T     PASS   107.   55.8 0.522  intergenic      
#>  5 chr4  1537972 1537973 G     A     PASS    93    40.8 0.439  intergenic      
#>  6 chr4  1565793 1565794 C     T     PASS   103.   46.2 0.448  intergenic      
#>  7 chr4  1600312 1600313 G     A     PASS    83.4  36.6 0.439  intergenic      
#>  8 chr4  1801455 1801456 G     A     PASS    96.6  47.4 0.491  intronic        
#>  9 chr4  2289980 2289981 C     T     PASS   101.   44.4 0.440  intronic        
#> 10 chr4  2358143 2358144 T     G     PASS    60     3.6 0.06   intronic        
#> # … with 7,008 more rows, and 9 more variables: GENE <chr>, is_driver <lgl>,
#> #   driver_label <chr>, gene <chr>, type <chr>, karyotype <chr>,
#> #   segment_id <chr>, mutation_multiplicity <dbl>, CCF <dbl>
CCF(y_r) %>% filter(!is.na(CCF))
#> # A tibble: 7,478 × 19
#>    chr      from      to ref   alt   FILTER    DP    NV    VAF ANNOVAR_FUNCTION
#>    <chr>   <dbl>   <dbl> <chr> <chr> <chr>  <dbl> <dbl>  <dbl> <chr>           
#>  1 chr4    54939   54940 C     A     PASS   431.   26.4 0.0613 intronic        
#>  2 chr4   573969  573970 G     C     PASS    98.4   9.6 0.0976 intergenic      
#>  3 chr4  1108141 1108142 G     A     PASS    94.2  39.6 0.420  ncRNA_intronic  
#>  4 chr4  1395352 1395353 C     T     PASS   107.   55.8 0.522  intergenic      
#>  5 chr4  1537972 1537973 G     A     PASS    93    40.8 0.439  intergenic      
#>  6 chr4  1565793 1565794 C     T     PASS   103.   46.2 0.448  intergenic      
#>  7 chr4  1600312 1600313 G     A     PASS    83.4  36.6 0.439  intergenic      
#>  8 chr4  1801455 1801456 G     A     PASS    96.6  47.4 0.491  intronic        
#>  9 chr4  2289980 2289981 C     T     PASS   101.   44.4 0.440  intronic        
#> 10 chr4  2358143 2358144 T     G     PASS    60     3.6 0.06   intronic        
#> # … with 7,468 more rows, and 9 more variables: GENE <chr>, is_driver <lgl>,
#> #   driver_label <chr>, gene <chr>, type <chr>, karyotype <chr>,
#> #   segment_id <chr>, mutation_multiplicity <dbl>, CCF <dbl>
…
