8. Drivers annotation • CNAqc
…
# What we annotate
x %>% Mutations
#> # A tibble: 12,963 × 18
#>    chr      from      to ref   alt      NV    DP    VAF FILTER ANNOVAR_F…¹ GENE 
#>    <chr>   <dbl>   <dbl> <chr> <chr> <dbl> <dbl>  <dbl> <chr>  <chr>       <chr>
#>  1 chr1  1027104 1027105 T     G         6    60 0.1    PASS   UTR5        C1or…
#>  2 chr1  2248588 2248589 A     C         9   127 0.0709 PASS   intergenic  SKI(…
#>  3 chr1  2461999 2462000 G     A        65   156 0.417  PASS   upstream    HES5 
#>  4 chr1  2727935 2727936 T     C        90   180 0.5    PASS   downstream  RP11…
#>  5 chr1  2763397 2763398 C     T        61   183 0.333  PASS   intergenic  RP11…
#>  6 chr1  2768208 2768209 C     T       130   203 0.640  PASS   intergenic  RP11…
#>  7 chr1  2935590 2935591 C     T       132   228 0.579  PASS   intergenic  RP11…
#>  8 chr1  2980032 2980033 C     T        85   196 0.434  PASS   ncRNA_exon… LINC…
#>  9 chr1  3387161 3387162 T     G         6   124 0.0484 PASS   intronic    ARHG…
#> 10 chr1  3502517 3502518 G     A        10    88 0.114  PASS   intronic    MEGF6
#> # … with 12,953 more rows, 7 more variables: is_driver <lgl>,
#> #   driver_label <chr>, gene <chr>, type <chr>, karyotype <chr>,
#> #   segment_id <chr>, cna <chr>, and abbreviated variable name
#> #   ¹​ANNOVAR_FUNCTION
…
# Organised table
intogen_drivers
#> # A tibble: 2,080 × 3
#>    gene  tumour synopsis              
#>    <chr> <chr>  <chr>                 
#>  1 ABCB1 ESCA   Esophageal cancer     
#>  2 ABI1  ESCA   Esophageal cancer     
#>  3 ABL1  HC     Hepatic cancer        
#>  4 ABL1  UCEC   Endometrial cancer    
#>  5 ABL2  BRCA   Breast adenocarcinoma 
#>  6 ABL2  THCA   Thyroid adenocarcinoma
#>  7 ABL2  UCEC   Endometrial cancer    
#>  8 ACKR3 OV     Ovary cancer          
#>  9 ACSL3 AML    Acute myeloid leukemia
#> 10 ACVR1 HGG    High-grade Glioma     
#> # … with 2,070 more rows
…
