Computation of Cancer Cell Fractions • CNAqc
…
# Print new object
print(x_default)
#>       CNAqc  n = 13141 mutations for 267 CNA segments (267 clonal, 0 subclonal) 
#>      Purity  89% cellularity 
#>  Karyotypes  7478 (2:2); 1893 (4:2); 1625 (3:2); 1563 (2:1); 312 (3:0); 81 (2:0); 4 (16:2); 2 (25:2); 2 (3:1); 1 (106:1); 1 (26:2); 1 (99:1) 
#>  
#>    Peaks QC  FALSE 
#>         CCF  TRUE  ~  2:1, 2:0, 2:2

We can visually inspect the CCF estimates for the default karyotypes ('2:1', '2:0' and '2:2'). We can do that accessing the field CCF_estimates which contains a plot reporting the result of the analysis.

# Result for karyptype '2:1' (triploid)
print(x_default$CCF_estimates$`2:1`)
#> $mutations
#> # A tibble: 1,563 x 15
#>    chr     from     to ref   alt   FILTER    DP    NV    VAF
#>    <chr>  <dbl>  <dbl> <chr> <chr> <chr>  <dbl> <dbl>  <dbl>
#>  1 chr2  3.58e5 3.58e5 C     A     PASS     104    58 0.558 
#>  2 chr2  9.09e5 9.09e5 A     G     PASS      15     7 0.467 
#>  3 chr2  1.04e6 1.04e6 C     T     PASS      93    57 0.613 
#>  4 chr2  1.33e6 1.33e6 A     T     PASS     104    55 0.529 
#>  5 chr2  1.52e6 1.52e6 C     T     PASS      90    50 0.556 
#>  6 chr2  2.20e6 2.20e6 G     T     PASS     125    42 0.336 
#>  7 chr2  2.90e6 2.90e6 C     T     PASS     109    58 0.532 
#>  8 chr2  3.13e6 3.13e6 A     G     PASS     134    35 0.261 
#>  9 chr2  3.83e6 3.83e6 A     T     PASS     120    68 0.567 
#> 10 chr2  3.88e6 3.88e6 T     A     PASS     126    10 0.0794
#> # … with 1,553 more rows, and 6 more variables: ANNOVAR_FUNCTION <chr>,
#> #   GENE <chr>, karyotype <chr>, segment_id <chr>,
#> #   mutation_multiplicity <dbl>, CCF <dbl>
…
We inspect also the remaining karyotypes, and find a similar satisfactory result.

# Result for karyptype '2:2' (tetraploid)
print(x_default$CCF_estimates$`2:2`)
#> $mutations
#> # A tibble: 7,478 x 15
#>    chr     from     to ref   alt   FILTER    DP    NV    VAF
#>    <chr>  <dbl>  <dbl> <chr> <chr> <chr>  <dbl> <dbl>  <dbl>
#>  1 chr4  5.49e4 5.49e4 C     A     PASS     718    44 0.0613
#>  2 chr4  5.74e5 5.74e5 G     C     PASS     164    16 0.0976
#>  3 chr4  1.11e6 1.11e6 G     A     PASS     157    66 0.420 
#>  4 chr4  1.40e6 1.40e6 C     T     PASS     178    93 0.522 
#>  5 chr4  1.54e6 1.54e6 G     A     PASS     155    68 0.439 
#>  6 chr4  1.57e6 1.57e6 C     T     PASS     172    77 0.448 
#>  7 chr4  1.60e6 1.60e6 G     A     PASS     139    61 0.439 
#>  8 chr4  1.80e6 1.80e6 G     A     PASS     161    79 0.491 
#>  9 chr4  2.29e6 2.29e6 C     T     PASS     168    74 0.440 
#> 10 chr4  2.36e6 2.36e6 T     G     PASS     100     6 0.06  
#> # … with 7,468 more rows, and 6 more variables: ANNOVAR_FUNCTION <chr>,
#> #   GENE <chr>, karyotype <chr>, segment_id <chr>,
#> #   mutation_multiplicity <dbl>, CCF <dbl>
…
# Result for karyptype '2:0' (tetraploid)
print(x_default$CCF_estimates$`2:0`)
#> $mutations
#> # A tibble: 81 x 15
#>    chr     from     to ref   alt   FILTER    DP    NV   VAF
#>    <chr>  <dbl>  <dbl> <chr> <chr> <chr>  <dbl> <dbl> <dbl>
#>  1 chr12 5.21e7 5.21e7 A     C     PASS      75     6 0.08 
#>  2 chr12 5.25e7 5.25e7 G     A     PASS      60    53 0.883
#>  3 chr12 5.34e7 5.34e7 C     T     PASS      82    75 0.915
#>  4 chr12 5.48e7 5.48e7 C     T     PASS      86    77 0.895
#>  5 chr12 5.48e7 5.48e7 A     T     PASS      72    62 0.861
#>  6 chr12 5.54e7 5.54e7 T     A     PASS      85    40 0.471
#>  7 chr12 5.78e7 5.78e7 C     T     PASS      73    62 0.849
#>  8 chr12 5.86e7 5.86e7 C     T     PASS      65    51 0.785
#>  9 chr12 5.86e7 5.86e7 T     A     PASS      64    57 0.891
#> 10 chr12 5.90e7 5.90e7 G     A     PASS      54    44 0.815
#> # … with 71 more rows, and 6 more variables: ANNOVAR_FUNCTION <chr>,
#> #   GENE <chr>, karyotype <chr>, segment_id <chr>,
#> #   mutation_multiplicity <dbl>, CCF <dbl>
…
Just for example, this is how CCF values would have changed if we had used different value of \(\hat{q}\).

# Bad estimates for q = .5
print(examples_low$CCF_estimates)
#> $`2:1`
#> $`2:1`$mutations
#> # A tibble: 1,563 x 15
#>    chr     from     to ref   alt   FILTER    DP    NV    VAF
#>    <chr>  <dbl>  <dbl> <chr> <chr> <chr>  <dbl> <dbl>  <dbl>
#>  1 chr2  3.58e5 3.58e5 C     A     PASS     104    58 0.558 
#>  2 chr2  9.09e5 9.09e5 A     G     PASS      15     7 0.467 
#>  3 chr2  1.04e6 1.04e6 C     T     PASS      93    57 0.613 
#>  4 chr2  1.33e6 1.33e6 A     T     PASS     104    55 0.529 
#>  5 chr2  1.52e6 1.52e6 C     T     PASS      90    50 0.556 
#>  6 chr2  2.20e6 2.20e6 G     T     PASS     125    42 0.336 
#>  7 chr2  2.90e6 2.90e6 C     T     PASS     109    58 0.532 
#>  8 chr2  3.13e6 3.13e6 A     G     PASS     134    35 0.261 
#>  9 chr2  3.83e6 3.83e6 A     T     PASS     120    68 0.567 
#> 10 chr2  3.88e6 3.88e6 T     A     PASS     126    10 0.0794
#> # … with 1,553 more rows, and 6 more variables: ANNOVAR_FUNCTION <chr>,
#> #   GENE <chr>, karyotype <chr>, segment_id <chr>,
#> #   mutation_multiplicity <dbl>, CCF <dbl>
…
# Still good estimates for q = .9
print(examples_high$CCF_estimates)
#> $`2:1`
#> $`2:1`$mutations
#> # A tibble: 1,563 x 15
#>    chr     from     to ref   alt   FILTER    DP    NV    VAF
#>    <chr>  <dbl>  <dbl> <chr> <chr> <chr>  <dbl> <dbl>  <dbl>
#>  1 chr2  3.58e5 3.58e5 C     A     PASS     104    58 0.558 
#>  2 chr2  9.09e5 9.09e5 A     G     PASS      15     7 0.467 
#>  3 chr2  1.04e6 1.04e6 C     T     PASS      93    57 0.613 
#>  4 chr2  1.33e6 1.33e6 A     T     PASS     104    55 0.529 
#>  5 chr2  1.52e6 1.52e6 C     T     PASS      90    50 0.556 
#>  6 chr2  2.20e6 2.20e6 G     T     PASS     125    42 0.336 
#>  7 chr2  2.90e6 2.90e6 C     T     PASS     109    58 0.532 
#>  8 chr2  3.13e6 3.13e6 A     G     PASS     134    35 0.261 
#>  9 chr2  3.83e6 3.83e6 A     T     PASS     120    68 0.567 
#> 10 chr2  3.88e6 3.88e6 T     A     PASS     126    10 0.0794
#> # … with 1,553 more rows, and 6 more variables: ANNOVAR_FUNCTION <chr>,
#> #   GENE <chr>, karyotype <chr>, segment_id <chr>,
#> #   mutation_multiplicity <dbl>, CCF <dbl>
…
