Analyze calls by peak detection. — analyze_peaks • CNAqc
…
#> [1] "4:2" "4:0" "3:2" "3:3" "3:1" "3:0" "4:3"
#> 
#> $general$params
#> $general$params$n_min
#> [1] 150
#> 
#> $general$params$epsilon
#> [1] 0.03
#> 
#> $general$params$n_bootstrap
#> [1] 5
#> 
#> 
#> $general$expected_peaks
#> # A tibble: 24 × 9
#>    minor Major ploidy multiplicity purity  peak karyotype matched n      
#>    <dbl> <dbl>  <dbl>        <int>  <dbl> <dbl> <chr>     <lgl>   <table>
#>  1     2     4      6            1  0.734 0.149 4:2       TRUE     1441  
#>  2     2     4      6            2  0.734 0.297 4:2       TRUE     1441  
#>  3     2     4      6            3  0.734 0.446 4:2       FALSE    1441  
#>  4     2     4      6            4  0.734 0.595 4:2       TRUE     1441  
#>  5     0     4      4            1  0.734 0.212 4:0       TRUE     1752  
#>  6     0     4      4            2  0.734 0.423 4:0       TRUE     1752  
#>  7     0     4      4            3  0.734 0.635 4:0       FALSE    1752  
#>  8     0     4      4            4  0.734 0.847 4:0       TRUE     1752  
#>  9     2     3      5            1  0.734 0.175 3:2       TRUE    58384  
#> 10     2     3      5            2  0.734 0.349 3:2       TRUE    58384  
#> # … with 14 more rows
#> 
#> $general$data_peaks
#> # A tibble: 81 × 7
#>        x     y counts_per_bin discarded from  karyotype n      
#>    <dbl> <dbl>          <int> <lgl>     <chr> <chr>     <table>
#>  1  0.15  0.93             19 FALSE     KDE   4:2       1441   
#>  2  0.3   2.96             59 FALSE     KDE   4:2       1441   
#>  3  0.59  3.14             62 FALSE     KDE   4:2       1441   
#>  4  0.9   0.02              0 TRUE      KDE   4:2       1441   
#>  5  0.16  0.98             19 FALSE     KDE   4:2       1441   
#>  6  0.29  2.75             47 FALSE     KDE   4:2       1441   
#>  7  0.91  0.01              0 TRUE      KDE   4:2       1441   
#>  8  0.42  3.55             88 FALSE     KDE   4:0       1752   
#>  9  0.84  1.86             59 FALSE     KDE   4:0       1752   
#> 10  0.22  0.71             19 FALSE     KDE   4:0       1752   
#> # … with 71 more rows
#> 
#> $general$data_densities
#> # A tibble: 3,584 × 4
#>          x        y karyotype n      
#>      <dbl>    <dbl> <chr>     <table>
#>  1 -0.0844 0.000252 4:2       1441   
#>  2 -0.0822 0.000307 4:2       1441   
#>  3 -0.0800 0.000371 4:2       1441   
#>  4 -0.0778 0.000447 4:2       1441   
#>  5 -0.0757 0.000535 4:2       1441   
#>  6 -0.0735 0.000639 4:2       1441   
#>  7 -0.0713 0.000764 4:2       1441   
#>  8 -0.0692 0.000909 4:2       1441   
#>  9 -0.0670 0.00108  4:2       1441   
#> 10 -0.0648 0.00127  4:2       1441   
#> # … with 3,574 more rows
…
#> 
#> $subclonal
#> $subclonal$params
#> $subclonal$params$n_min
#> [1] 150
#> 
#> $subclonal$params$epsilon
#> [1] 0.03
#> 
#> $subclonal$params$n_bootstrap
#> [1] 5
#> 
#> 
#> $subclonal$expected_peaks
#> # A tibble: 98 × 16
#>    mutation karyotype_1 genotype_1 karyotype_2 genotype_2 n.clone_1 n.clone_2
#>    <chr>    <chr>       <chr>      <chr>       <chr>          <dbl>     <dbl>
#>  1 LISKJKOW 2:1         A1A2B1     NA          NA                 1         0
#>  2 DFHSKVBB NA          NA         2:2         A1A2B1B2           0         1
#>  3 WOEJJHRA 2:1         A1A2B1     2:2         A1A2B1B2           1         1
#>  4 DFBNKIRY 2:1         A1A2B1     2:2         A1A2B1B2           1         2
#>  5 OXXXPRUK 2:1         A1A2B1     2:2         A1A2B1B2           2         2
#>  6 CSQYNXSZ NA          NA         2:2         A1A2B1B2           0         1
#>  7 HHFSUPHA 2:1         A1A2B1     2:2         A1A2B1B2           1         1
#>  8 MPCFHOYR 2:1         A1A2B1     2:2         A1A2B1B2           1         2
#>  9 HCSVOLTD 2:1         A1A2B1     2:2         A1A2B1B2           2         2
#> 10 AWJHZQOX NA          NA         2:1         A2B1B2             0         1
#> # … with 88 more rows, and 9 more variables: peak <dbl>,
#> #   genotype_initial <chr>, model <chr>, model_id <chr>, role <chr>,
#> #   segment_id <chr>, matched <lgl>, size <chr>, clones <chr>
#> 
#> $subclonal$data_peaks
#> # A tibble: 99 × 8
#>        x     y counts_per_bin discarded from  segment_id    size          clones
#>    <dbl> <dbl>          <int> <lgl>     <chr> <chr>         <chr>         <chr> 
#>  1  0.06 0.07               1 TRUE      KDE   chr6@82432583 (1.8Mb, n = … 2:1 0…
#>  2  0.19 1.07               5 FALSE     KDE   chr6@82432583 (1.8Mb, n = … 2:1 0…
#>  3  0.27 0.99               0 FALSE     KDE   chr6@82432583 (1.8Mb, n = … 2:1 0…
#>  4  0.4  5.69              27 FALSE     KDE   chr6@82432583 (1.8Mb, n = … 2:1 0…
#>  5  0.2  1.04               2 FALSE     KDE   chr6@82432583 (1.8Mb, n = … 2:1 0…
#>  6  0.43 5.51              23 FALSE     KDE   chr6@82432583 (1.8Mb, n = … 2:1 0…
#>  7  0.26 0.983             11 FALSE     KDE   chr6@82432583 (1.8Mb, n = … 2:1 0…
#>  8  0.44 5.36              15 FALSE     KDE   chr6@82432583 (1.8Mb, n = … 2:1 0…
#>  9  0.12 0.163              0 TRUE      KDE   chr6@82432583 (1.8Mb, n = … 2:1 0…
#> 10  0.25 0.939              2 FALSE     KDE   chr6@82432583 (1.8Mb, n = … 2:1 0…
#> # … with 89 more rows
…
#> 
#> $subclonal$mutations
#> # A tibble: 18,614 × 58
#>    chr       from       to ref   alt   sample         icgc_donor_id project_code
#>    <chr>    <dbl>    <dbl> <chr> <chr> <chr>          <chr>         <chr>       
#>  1 chr6  82434981 82434981 G     A     51893d3f-e7f3… DO220903      MELA-AU     
#>  2 chr6  82445298 82445298 C     T     51893d3f-e7f3… DO220903      MELA-AU     
#>  3 chr6  82479209 82479209 G     T     51893d3f-e7f3… DO220903      MELA-AU     
#>  4 chr6  82486512 82486512 G     A     51893d3f-e7f3… DO220903      MELA-AU     
#>  5 chr6  82496979 82496979 C     T     51893d3f-e7f3… DO220903      MELA-AU     
#>  6 chr6  82516071 82516071 G     A     51893d3f-e7f3… DO220903      MELA-AU     
#>  7 chr6  82522451 82522451 G     A     51893d3f-e7f3… DO220903      MELA-AU     
#>  8 chr6  82534035 82534035 C     T     51893d3f-e7f3… DO220903      MELA-AU     
#>  9 chr6  82537650 82537650 C     T     51893d3f-e7f3… DO220903      MELA-AU     
#> 10 chr6  82572477 82572477 T     C     51893d3f-e7f3… DO220903      MELA-AU     
#> # … with 18,604 more rows, and 50 more variables: icgc_specimen_id <chr>,
#> #   icgc_sample_id <chr>, submitted_sample_id <chr>,
#> #   submitted_matched_sample_id <chr>, chromosome_strand <dbl>,
#> #   assembly_version <chr>, mutation_type <chr>, reference_genome_allele <chr>,
#> #   quality_score <lgl>, probability <lgl>, verification_status <chr>,
#> #   verification_platform <lgl>, biological_validation_status <chr>,
#> #   biological_validation_platform <lgl>, gene_build_version <dbl>, …
…
