Return the available mutation CCF estimates in the data. — CCF • CNAqc
…
#> =-=-=-=-=-=-=-=-=-=-=-=-=-
#> # A tibble: 8 x 3
#>   karyotype mutation_multiplicity assignments
#>   <chr>                     <dbl>       <int>
#> 1 2:0                           1           9
#> 2 2:0                           2          72
#> 3 2:1                           1         886
#> 4 2:1                           2         675
#> 5 2:1                          NA           2
#> 6 2:2                           1        1013
#> 7 2:2                           2        6427
#> 8 2:2                          NA          38
#> Note: NA ~ mutations not confidently assignable at q = 0.9 
CCF(x)
#> # A tibble: 9,122 x 15
#>    chr     from     to ref   alt   FILTER    DP    NV    VAF ANNOVAR_FUNCTION
#>    <chr>  <dbl>  <dbl> <chr> <chr> <chr>  <dbl> <dbl>  <dbl> <chr>           
#>  1 chr2  3.58e5 3.58e5 C     A     PASS     104    58 0.558  intergenic      
#>  2 chr2  9.09e5 9.09e5 A     G     PASS      15     7 0.467  ncRNA_intronic  
#>  3 chr2  1.04e6 1.04e6 C     T     PASS      93    57 0.613  intronic        
#>  4 chr2  1.33e6 1.33e6 A     T     PASS     104    55 0.529  intronic        
#>  5 chr2  1.52e6 1.52e6 C     T     PASS      90    50 0.556  intronic        
#>  6 chr2  2.20e6 2.20e6 G     T     PASS     125    42 0.336  intronic        
#>  7 chr2  2.90e6 2.90e6 C     T     PASS     109    58 0.532  downstream      
#>  8 chr2  3.13e6 3.13e6 A     G     PASS     134    35 0.261  ncRNA_intronic  
#>  9 chr2  3.83e6 3.83e6 A     T     PASS     120    68 0.567  intergenic      
#> 10 chr2  3.88e6 3.88e6 T     A     PASS     126    10 0.0794 intergenic      
#> # … with 9,112 more rows, and 5 more variables: GENE <chr>, karyotype <chr>,
#> #   segment_id <chr>, mutation_multiplicity <dbl>, CCF <dbl>
…
