Example CNAqc dataset. — example_dataset_CNAqc • CNAqc
…
    Format

    A list of snvs, cna and purity value that
can be used to run CNAqc analyses.

    References

    ??

    Examples

data(example_dataset_CNAqc)
example_dataset_CNAqc
#> $snvs
#> # A tibble: 13,141 x 51
#>    chr   from  ID    ref   alt   QUAL  FILTER INFO  id       DP    NV    VAF
#>    <chr> <chr> <chr> <chr> <chr> <chr> <chr>  <chr> <chr> <dbl> <dbl>  <dbl>
#>  1 chr1  1027… NA    T     G     1.73… PASS   DP=8… chr1…    60     6 0.1   
#>  2 chr1  2248… NA    A     C     -0    PASS   DP=1… chr1…   127     9 0.0709
#>  3 chr1  2461… NA    G     A     225   PASS   DP=1… chr1…   156    65 0.417 
#>  4 chr1  2727… NA    T     C     225   PASS   DP=1… chr1…   180    90 0.5   
#>  5 chr1  2763… NA    C     T     225   PASS   DP=1… chr1…   183    61 0.333 
#>  6 chr1  2768… rs18… C     T     225   PASS   DP=2… chr1…   203   130 0.640 
#>  7 chr1  2935… NA    C     T     225   PASS   DP=2… chr1…   228   132 0.579 
#>  8 chr1  2980… NA    C     T     225   PASS   DP=2… chr1…   196    85 0.434 
#>  9 chr1  3387… NA    T     G     -0    PASS   DP=1… chr1…   124     6 0.0484
#> 10 chr1  3502… rs11… G     A     0.00… PASS   DP=9… chr1…    88    10 0.114 
#> # … with 13,131 more rows, and 39 more variables:
#> #   `/icgc/dkfzlsdf/project/hipo/hipo_043/sequencing/whole_genome_sequencing/view-by-pid/H043-W99H5K/tumor/paired/merged-alignment/.merging_0/tumor_H043-W99H5K_merged.mdup.bam` <chr>,
#> #   SEQUENCE_CONTEXT <chr>,
#> #   `INFO_control(VAF=variant_allele_fraction;TSR=total_variant_supporting_reads_incl_lowqual)` <chr>,
#> #   ANNOTATION_control <chr>, DBSNP <chr>, `1K_GENOMES` <chr>,
#> #   ANNOVAR_FUNCTION <chr>, GENE <chr>, EXONIC_CLASSIFICATION <chr>,
#> #   ANNOVAR_TRANSCRIPTS <chr>, SEGDUP <chr>, CYTOBAND <chr>,
#> #   REPEAT_MASKER <chr>, DAC_BLACKLIST <chr>, DUKE_EXCLUDED <chr>,
#> #   HISEQDEPTH <chr>, SELFCHAIN <chr>, MAPABILITY <chr>,
#> #   SIMPLE_TANDEMREPEATS <chr>, CONFIDENCE <chr>, RECLASSIFICATION <chr>,
#> #   PENALTIES <chr>, seqBiasPresent_1 <chr>, seqingBiasPresent_1 <chr>,
#> #   seqBiasPresent_2 <chr>, seqingBiasPresent_2 <chr>, Enhancers <chr>,
#> #   CpGislands <chr>, TFBScons <chr>, ENCODE_DNASE <chr>, miRNAs_snoRNAs <chr>,
#> #   miRBase18 <chr>, COSMIC <chr>, miRNAtargets <chr>, CgiMountains <chr>,
#> #   phastConsElem20bp <chr>, ENCODE_TFBS <chr>, blacklist <chr>, to <dbl>
#> 
#> $cna
#> # A tibble: 482 x 19
#>    chr     from     to length covRatio   TCN SV.Type c1Mean c2Mean  dhEst dhSNPs
#>    <chr>  <int>  <int>  <int>    <dbl> <dbl> <fct>    <dbl>  <dbl>  <dbl>  <dbl>
#>  1 chr1  8.40e5 1.69e6 8.50e5     1.19  5.05 NA        2.02   3.03  0.199  0.192
#>  2 chr1  1.69e6 1.82e6 1.25e5     1.26  5.38 NA        2.19   3.19  0.185  0.182
#>  3 chr1  1.82e6 9.80e6 7.98e6     1.19  5.05 NA        2.02   3.03  0.199  0.190
#>  4 chr1  9.80e6 9.87e6 7.50e4     1.26  5.38 NA       NA     NA    NA     NA    
#>  5 chr1  9.87e6 1.05e7 6.05e5     1.24  5.29 NA       NA     NA    NA      0.228
#>  6 chr1  1.05e7 1.21e7 1.60e6     1.19  5.05 NA        2.02   3.03  0.199  0.181
#>  7 chr1  1.21e7 1.22e7 7.51e4     1.24  5.29 NA        2.04   3.25  0.229  0.207
#>  8 chr1  1.22e7 1.28e7 6.85e5     1.19  5.05 NA        2.02   3.03  0.199  0.200
#>  9 chr1  1.38e7 1.78e7 4.01e6     1.19  5.05 NA        2.02   3.03  0.199  0.193
#> 10 chr1  1.78e7 1.78e7 5.99e4     1.26  5.38 NA       NA     NA    NA      0.158
#> # … with 472 more rows, and 8 more variables: Major <chr>, minor <chr>,
#> #   CNA.type <fct>, NbrOfHetsSNPs <int>, minStart <int>, maxStart <int>,
#> #   minStop <int>, maxStop <int>
…
