1. Introduction • CNAqc
…
the Variant Allele Frequency, VAF, defined as NV/DP.

Chromosome names and alleles should be in character format; chromosomes must be in the format chr1, chr2, etc..

# Example input SNVs
print(
  example_dataset_CNAqc$snvs %>% 
        select(
          chr, from, to, # Genomic coordinates
          ref, alt,      # Alleles (reference and alternative)
          DP, NV, VAF    # Read counts (depth, number of variant reads, tumour VAF)
          )
  )
#> # A tibble: 12,963 x 8
#>    chr      from      to ref   alt      DP    NV    VAF
#>    <chr>   <dbl>   <dbl> <chr> <chr> <dbl> <dbl>  <dbl>
#>  1 chr1  1027104 1027105 T     G        60     6 0.1   
#>  2 chr1  2248588 2248589 A     C       127     9 0.0709
#>  3 chr1  2461999 2462000 G     A       156    65 0.417 
#>  4 chr1  2727935 2727936 T     C       180    90 0.5   
#>  5 chr1  2763397 2763398 C     T       183    61 0.333 
#>  6 chr1  2768208 2768209 C     T       203   130 0.640 
#>  7 chr1  2935590 2935591 C     T       228   132 0.579 
#>  8 chr1  2980032 2980033 C     T       196    85 0.434 
#>  9 chr1  3387161 3387162 T     G       124     6 0.0484
#> 10 chr1  3502517 3502518 G     A        88    10 0.114 
#> # … with 12,953 more rows

Optionally, you can annotate also driver mutations:

whether the mutation is a driver, using a boolean flag is_driver;

a driver_label reportin the label to show in the plots with drivers.

print(
  example_dataset_CNAqc$snvs %>% 
        select(
          chr, from, to, ref, alt, is_driver, driver_label, everything()
        )
  )
#> # A tibble: 12,963 x 13
#>    chr      from     to ref   alt   is_driver driver_label    FILTER    DP    NV
#>    <chr>   <dbl>  <dbl> <chr> <chr> <lgl>     <chr>           <chr>  <dbl> <dbl>
#>  1 chr1  1027104 1.03e6 T     G     FALSE     C1orf159(ENST0… PASS      60     6
#>  2 chr1  2248588 2.25e6 A     C     FALSE     SKI(dist=7030)… PASS     127     9
#>  3 chr1  2461999 2.46e6 G     A     FALSE     HES5            PASS     156    65
#>  4 chr1  2727935 2.73e6 T     C     FALSE     RP11-740P5.2    PASS     180    90
#>  5 chr1  2763397 2.76e6 C     T     FALSE     RP11-740P5.3(d… PASS     183    61
#>  6 chr1  2768208 2.77e6 C     T     FALSE     RP11-740P5.3(d… PASS     203   130
#>  7 chr1  2935590 2.94e6 C     T     FALSE     RP11-740P5.3(d… PASS     228   132
#>  8 chr1  2980032 2.98e6 C     T     FALSE     LINC00982       PASS     196    85
#>  9 chr1  3387161 3.39e6 T     G     FALSE     ARHGEF16        PASS     124     6
#> 10 chr1  3502517 3.50e6 G     A     FALSE     MEGF6           PASS      88    10
#> # … with 12,953 more rows, and 3 more variables: VAF <dbl>,
#> #   ANNOVAR_FUNCTION <chr>, GENE <chr>
…
Optionally, you can annotate also annotate the Cancer Cell Fraction (CCF) CCF for each segment:

segments with CCF = 1 are clonal, otherwise subclonal;

by default, if missing, all segments are assumed to be clonal and assigned CCF = 1. Some computations subset only clonal copy number segments (see the manual of each function).

# Example input CNA
print(
  example_dataset_CNAqc$cna %>% 
        select(
          chr, from, to, # Genomic coordinates
          Major, minor  # Number of copies of major/ and minor allele (B-allele)
        )
  )
#> # A tibble: 267 x 5
#>    chr       from       to Major minor
#>    <chr>    <int>    <int> <dbl> <dbl>
#>  1 chr1    840009  1689987     3     2
#>  2 chr1   1689988  1815015     3     2
#>  3 chr1   1815016  9799969     3     2
#>  4 chr1  10479910 12079917     3     2
#>  5 chr1  12079917 12154980     3     2
#>  6 chr1  12154981 12839977     3     2
#>  7 chr1  13780016 17790026     3     2
#>  8 chr1  17849962 21080067     3     2
#>  9 chr1  21080068 21559998     3     2
#> 10 chr1  21559998 24830001     3     2
#> # … with 257 more rows
…
The summary of x can be print to see the number of mutations per karyotype, sorted by size.

print(x)
#> $reference_genome
#> [1] "hg19"
#> 
#> $snvs
#> # A tibble: 12,963 x 17
#>    chr      from      to ref   alt   FILTER    DP    NV    VAF ANNOVAR_FUNCTION
#>    <chr>   <dbl>   <dbl> <chr> <chr> <chr>  <dbl> <dbl>  <dbl> <chr>           
#>  1 chr1  1027104 1027105 T     G     PASS      60     6 0.1    UTR5            
#>  2 chr1  2248588 2248589 A     C     PASS     127     9 0.0709 intergenic      
#>  3 chr1  2461999 2462000 G     A     PASS     156    65 0.417  upstream        
#>  4 chr1  2727935 2727936 T     C     PASS     180    90 0.5    downstream      
#>  5 chr1  2763397 2763398 C     T     PASS     183    61 0.333  intergenic      
#>  6 chr1  2768208 2768209 C     T     PASS     203   130 0.640  intergenic      
#>  7 chr1  2935590 2935591 C     T     PASS     228   132 0.579  intergenic      
#>  8 chr1  2980032 2980033 C     T     PASS     196    85 0.434  ncRNA_exonic    
#>  9 chr1  3387161 3387162 T     G     PASS     124     6 0.0484 intronic        
#> 10 chr1  3502517 3502518 G     A     PASS      88    10 0.114  intronic        
#> # … with 12,953 more rows, and 7 more variables: GENE <chr>, is_driver <lgl>,
#> #   driver_label <chr>, gene <chr>, type <chr>, karyotype <chr>,
#> #   segment_id <chr>
#> 
#> $cna
#> # A tibble: 267 x 10
#>    chr      from      to length covRatio Major minor   CCF segment_id          n
#>    <chr>   <int>   <int>  <int>    <dbl> <dbl> <dbl> <dbl> <chr>           <int>
#>  1 chr1   8.40e5  1.69e6 8.50e5     1.19     3     2     1 chr1:840009:16…     1
#>  2 chr1   1.69e6  1.82e6 1.25e5     1.26     3     2     1 chr1:1689988:1…    NA
#>  3 chr1   1.82e6  9.80e6 7.98e6     1.19     3     2     1 chr1:1815016:9…    28
#>  4 chr1   1.05e7  1.21e7 1.60e6     1.19     3     2     1 chr1:10479910:…     1
#>  5 chr1   1.21e7  1.22e7 7.51e4     1.24     3     2     1 chr1:12079917:…    NA
#>  6 chr1   1.22e7  1.28e7 6.85e5     1.19     3     2     1 chr1:12154981:…    NA
#>  7 chr1   1.38e7  1.78e7 4.01e6     1.19     3     2     1 chr1:13780016:…     7
#>  8 chr1   1.78e7  2.11e7 3.23e6     1.19     3     2     1 chr1:17849962:…    12
#>  9 chr1   2.11e7  2.16e7 4.80e5     1.26     3     2     1 chr1:21080068:…    NA
#> 10 chr1   2.16e7  2.48e7 3.27e6     1.19     3     2     1 chr1:21559998:…    11
#> # … with 257 more rows
…
# 5000 + the ranomd entries that we sampled before
print(y_5000)
#> $reference_genome
#> [1] "GRCh38"
#> 
#> $snvs
#> # A tibble: 5,003 x 17
#>    chr       from      to ref   alt   FILTER    DP    NV    VAF ANNOVAR_FUNCTION
#>    <chr>    <dbl>   <dbl> <chr> <chr> <chr>  <dbl> <dbl>  <dbl> <chr>           
#>  1 chr2    1.79e8  1.79e8 C     T     PASS     117    77 0.658  exonic          
#>  2 chr16   6.76e7  6.76e7 C     T     PASS     120    54 0.45   exonic          
#>  3 chr17   7.58e6  7.58e6 G     C     PASS      84    78 0.929  exonic          
#>  4 chr6    1.06e8  1.06e8 A     T     PASS     128    69 0.539  intergenic      
#>  5 chr10   9.09e7  9.09e7 T     A     PASS     123    76 0.618  intergenic      
#>  6 chr3    8.38e7  8.38e7 T     A     PASS     208    70 0.337  intergenic      
#>  7 chr16   2.06e7  2.06e7 T     C     PASS     135    29 0.215  intronic        
#>  8 chr1    9.06e7  9.06e7 A     G     PASS     157    10 0.0637 intergenic      
#>  9 chr2    7.70e7  7.70e7 A     G     PASS     111    71 0.640  intronic        
#> 10 chr6    1.39e8  1.39e8 G     A     PASS     125    65 0.52   intronic        
#> # … with 4,993 more rows, and 7 more variables: GENE <chr>, is_driver <lgl>,
#> #   driver_label <chr>, gene <chr>, type <chr>, karyotype <chr>,
#> #   segment_id <chr>
#> 
#> $cna
#> # A tibble: 267 x 10
#>    chr      from      to length covRatio Major minor   CCF segment_id          n
#>    <chr>   <int>   <int>  <int>    <dbl> <dbl> <dbl> <dbl> <chr>           <int>
#>  1 chr1   8.40e5  1.69e6 8.50e5     1.19     3     2     1 chr1:840009:16…     1
#>  2 chr1   1.69e6  1.82e6 1.25e5     1.26     3     2     1 chr1:1689988:1…    NA
#>  3 chr1   1.82e6  9.80e6 7.98e6     1.19     3     2     1 chr1:1815016:9…    15
#>  4 chr1   1.05e7  1.21e7 1.60e6     1.19     3     2     1 chr1:10479910:…     1
#>  5 chr1   1.21e7  1.22e7 7.51e4     1.24     3     2     1 chr1:12079917:…    NA
#>  6 chr1   1.22e7  1.28e7 6.85e5     1.19     3     2     1 chr1:12154981:…    NA
#>  7 chr1   1.38e7  1.78e7 4.01e6     1.19     3     2     1 chr1:13780016:…     3
#>  8 chr1   1.78e7  2.11e7 3.23e6     1.19     3     2     1 chr1:17849962:…     5
#>  9 chr1   2.11e7  2.16e7 4.80e5     1.26     3     2     1 chr1:21080068:…    NA
#> 10 chr1   2.16e7  2.48e7 3.27e6     1.19     3     2     1 chr1:21559998:…     3
#> # … with 257 more rows
…
print(y_tripl_cnloh)
#> $reference_genome
#> [1] "hg19"
#> 
#> $snvs
#> # A tibble: 1,644 x 17
#>    chr      from      to ref   alt   FILTER    DP    NV    VAF ANNOVAR_FUNCTION
#>    <chr>   <dbl>   <dbl> <chr> <chr> <chr>  <dbl> <dbl>  <dbl> <chr>           
#>  1 chr2   357969  357970 C     A     PASS     104    58 0.558  intergenic      
#>  2 chr2   909304  909305 A     G     PASS      15     7 0.467  ncRNA_intronic  
#>  3 chr2  1035751 1035752 C     T     PASS      93    57 0.613  intronic        
#>  4 chr2  1326719 1326720 A     T     PASS     104    55 0.529  intronic        
#>  5 chr2  1515962 1515963 C     T     PASS      90    50 0.556  intronic        
#>  6 chr2  2198361 2198362 G     T     PASS     125    42 0.336  intronic        
#>  7 chr2  2898536 2898537 C     T     PASS     109    58 0.532  downstream      
#>  8 chr2  3125481 3125482 A     G     PASS     134    35 0.261  ncRNA_intronic  
#>  9 chr2  3832360 3832361 A     T     PASS     120    68 0.567  intergenic      
#> 10 chr2  3878408 3878409 T     A     PASS     126    10 0.0794 intergenic      
#> # … with 1,634 more rows, and 7 more variables: GENE <chr>, is_driver <lgl>,
#> #   driver_label <chr>, gene <chr>, type <chr>, karyotype <chr>,
#> #   segment_id <chr>
#> 
#> $cna
#> # A tibble: 58 x 11
#>    chr      from     to length covRatio Major minor k       CCF segment_id     n
#>    <chr>   <int>  <int>  <int>    <dbl> <dbl> <dbl> <chr> <dbl> <chr>      <int>
#>  1 chr11  1.90e5 2.63e6 2.44e6    0.731     2     1 2:1       1 chr11:190…     9
#>  2 chr11  2.63e6 2.68e6 5.01e4    0.748     2     1 2:1       1 chr11:262…    NA
#>  3 chr11  2.68e6 4.80e6 2.12e6    0.731     2     1 2:1       1 chr11:267…     6
#>  4 chr11  4.91e6 9.94e6 5.03e6    0.731     2     1 2:1       1 chr11:490…    12
#>  5 chr11  9.97e6 1.71e7 7.10e6    0.731     2     1 2:1       1 chr11:997…    12
#>  6 chr11  1.71e7 1.74e7 3.25e5    0.748     2     1 2:1       1 chr11:170…     3
#>  7 chr11  1.74e7 4.89e7 3.15e7    0.731     2     1 2:1       1 chr11:173…   141
#>  8 chr11  5.02e7 5.06e7 4.00e5    0.731     2     1 2:1       1 chr11:501…     2
#>  9 chr11  5.12e7 5.16e7 3.50e5    0.748     2     1 2:1       1 chr11:512…     1
#> 10 chr11  5.50e7 5.54e7 3.60e5    0.731     2     1 2:1       1 chr11:549…     1
#> # … with 48 more rows
…
print(y_2_4)
#> $reference_genome
#> [1] "hg19"
#> 
#> $snvs
#> # A tibble: 7,561 x 17
#>    chr      from      to ref   alt   FILTER    DP    NV    VAF ANNOVAR_FUNCTION
#>    <chr>   <dbl>   <dbl> <chr> <chr> <chr>  <dbl> <dbl>  <dbl> <chr>           
#>  1 chr4    54939   54940 C     A     PASS     718    44 0.0613 intronic        
#>  2 chr4   573969  573970 G     C     PASS     164    16 0.0976 intergenic      
#>  3 chr4  1108141 1108142 G     A     PASS     157    66 0.420  ncRNA_intronic  
#>  4 chr4  1395352 1395353 C     T     PASS     178    93 0.522  intergenic      
#>  5 chr4  1537972 1537973 G     A     PASS     155    68 0.439  intergenic      
#>  6 chr4  1565793 1565794 C     T     PASS     172    77 0.448  intergenic      
#>  7 chr4  1600312 1600313 G     A     PASS     139    61 0.439  intergenic      
#>  8 chr4  1801455 1801456 G     A     PASS     161    79 0.491  intronic        
#>  9 chr4  2289980 2289981 C     T     PASS     168    74 0.440  intronic        
#> 10 chr4  2358143 2358144 T     G     PASS     100     6 0.06   intronic        
#> # … with 7,551 more rows, and 7 more variables: GENE <chr>, is_driver <lgl>,
#> #   driver_label <chr>, gene <chr>, type <chr>, karyotype <chr>,
#> #   segment_id <chr>
#> 
#> $cna
#> # A tibble: 90 x 12
#>    chr      from      to length covRatio Major minor   CCF segment_id        n.x
#>    <chr>   <int>   <int>  <int>    <dbl> <dbl> <dbl> <dbl> <chr>           <int>
#>  1 chr1   1.45e8  1.46e8 8.20e5    1.04      2     2     1 chr1:144920087…    NA
#>  2 chr12  1.60e5  3.48e7 3.47e7    0.950     2     2     1 chr12:160107:3…   131
#>  3 chr12  3.80e7  3.83e7 2.70e5    1.04      2     2     1 chr12:38000003…    NA
#>  4 chr12  3.83e7  5.18e7 1.35e7    0.950     2     2     1 chr12:38270005…    36
#>  5 chr12  5.18e7  5.20e7 1.67e5    0.505     2     0     1 chr12:51831429…    NA
#>  6 chr12  5.20e7  5.21e7 6.44e4    0.950     2     2     1 chr12:51998742…    NA
#>  7 chr12  5.21e7  5.80e7 5.95e6    0.505     2     0     1 chr12:52063102…     7
#>  8 chr12  5.84e7  6.70e7 8.66e6    0.505     2     0     1 chr12:58353990…    21
#>  9 chr12  6.72e7  6.74e7 1.34e5    0.505     2     0     1 chr12:67235088…    NA
#> 10 chr12  6.74e7  1.33e8 6.61e7    0.950     2     2     1 chr12:67369494…   335
#> # … with 80 more rows, and 2 more variables: total_cn <dbl>, n.y <int>
…
Reference genome coordinates

CNAqc contains two coordinates for two reference genomes, hg19 and GRCh38 (default). For each reference genome the package stores the location of the chromosomes, and their centromers; you can access these data.

CNAqc:::get_reference("hg19")
#> # A tibble: 24 x 6
#>    chr      length       from         to centromerStart centromerEnd
#>    <chr>     <int>      <dbl>      <dbl>          <dbl>        <dbl>
#>  1 chr1  249250621          0  249250621      121535434    124535434
#>  2 chr2  243199373  249250621  492449994      341576792    344576792
#>  3 chr3  198022430  492449994  690472424      582954848    585954848
#>  4 chr4  191154276  690472424  881626700      740132541    743132541
#>  5 chr5  180915260  881626700 1062541960      928032341    931032341
#>  6 chr6  171115067 1062541960 1233657027     1121372126   1124372126
#>  7 chr7  159138663 1233657027 1392795690     1291711358   1294711358
#>  8 chr8  146364022 1392795690 1539159712     1436634577   1439634577
#>  9 chr9  141213431 1539159712 1680373143     1586527391   1589527391
#> 10 chr10 135534747 1680373143 1815907890     1719628078   1722628078
#> # … with 14 more rows

CNAqc:::get_reference("GRCh38")
#> # A tibble: 24 x 6
#>    chr      length       from         to centromerStart centromerEnd
#>    <chr>     <dbl>      <dbl>      <dbl>          <dbl>        <dbl>
#>  1 chr1  248956422          0  248956422      122026459    124849229
#>  2 chr2  242193529  248956422  491149951      341144567    341144567
#>  3 chr3  198295559  491149951  689445510      581922409    582703370
#>  4 chr4  190214555  689445510  879660065      739157571    739157571
#>  5 chr5  181538259  879660065 1061198324      926145965    929381368
#>  6 chr6  170805979 1061198324 1232004303     1119752212   1119752212
#>  7 chr7  159345973 1232004303 1391350276     1290173956   1293382091
#>  8 chr8  145138636 1391350276 1536488912     1435384020   1435384020
#>  9 chr9  138394717 1536488912 1674883629     1579878547   1579878547
#> 10 chr10 133797422 1674883629 1808681051     1714570311   1716429449
#> # … with 14 more rows
…
