3. QC analysis via peaks detection • CNAqc
…
CNAqc matches allelic imbalance of CNA segments to the allelic frequencies of somatic mutations. The package implements a karyotype-weighted linear score which uses the distance between data peaks (empirical), and their theoretical expectation. This score accouts for normal plodiy (germline), and tumour purity/ ploidy. The peaks are determined via kernel density estimation and peak-detection heuristics.

library(CNAqc)
#> ✔ Loading BMix, 'Binomial and Beta-Binomial univariate mixtures'. Support : <https://caravagn.github.io/BMix/>
#> ✔ Loading CNAqc, 'Copy Number Alteration quality check'. Support : <https://caravagn.github.io/CNAqc/>

We work with the template dataset.

#>  [ CNAqc - CNA Quality Check ]
#> $reference_genome
#> [1] "hg19"
#> 
#> $snvs
#> # A tibble: 12,963 x 17
#>    chr      from      to ref   alt   FILTER    DP    NV    VAF ANNOVAR_FUNCTION
#>    <chr>   <dbl>   <dbl> <chr> <chr> <chr>  <dbl> <dbl>  <dbl> <chr>           
#>  1 chr1  1027104 1027105 T     G     PASS      60     6 0.1    UTR5            
#>  2 chr1  2248588 2248589 A     C     PASS     127     9 0.0709 intergenic      
#>  3 chr1  2461999 2462000 G     A     PASS     156    65 0.417  upstream        
#>  4 chr1  2727935 2727936 T     C     PASS     180    90 0.5    downstream      
#>  5 chr1  2763397 2763398 C     T     PASS     183    61 0.333  intergenic      
#>  6 chr1  2768208 2768209 C     T     PASS     203   130 0.640  intergenic      
#>  7 chr1  2935590 2935591 C     T     PASS     228   132 0.579  intergenic      
#>  8 chr1  2980032 2980033 C     T     PASS     196    85 0.434  ncRNA_exonic    
#>  9 chr1  3387161 3387162 T     G     PASS     124     6 0.0484 intronic        
#> 10 chr1  3502517 3502518 G     A     PASS      88    10 0.114  intronic        
#> # … with 12,953 more rows, and 7 more variables: GENE <chr>, is_driver <lgl>,
#> #   driver_label <chr>, gene <chr>, type <chr>, karyotype <chr>,
#> #   segment_id <chr>
#> 
#> $cna
#> # A tibble: 267 x 10
#>    chr      from      to length covRatio Major minor   CCF segment_id          n
#>    <chr>   <int>   <int>  <int>    <dbl> <dbl> <dbl> <dbl> <chr>           <int>
#>  1 chr1   8.40e5  1.69e6 8.50e5     1.19     3     2     1 chr1:840009:16…     1
#>  2 chr1   1.69e6  1.82e6 1.25e5     1.26     3     2     1 chr1:1689988:1…    NA
#>  3 chr1   1.82e6  9.80e6 7.98e6     1.19     3     2     1 chr1:1815016:9…    28
#>  4 chr1   1.05e7  1.21e7 1.60e6     1.19     3     2     1 chr1:10479910:…     1
#>  5 chr1   1.21e7  1.22e7 7.51e4     1.24     3     2     1 chr1:12079917:…    NA
#>  6 chr1   1.22e7  1.28e7 6.85e5     1.19     3     2     1 chr1:12154981:…    NA
#>  7 chr1   1.38e7  1.78e7 4.01e6     1.19     3     2     1 chr1:13780016:…     7
#>  8 chr1   1.78e7  2.11e7 3.23e6     1.19     3     2     1 chr1:17849962:…    12
#>  9 chr1   2.11e7  2.16e7 4.80e5     1.26     3     2     1 chr1:21080068:…    NA
#> 10 chr1   2.16e7  2.48e7 3.27e6     1.19     3     2     1 chr1:21559998:…    11
#> # … with 257 more rows
…
CNAqc analyze LOH regions (A, AA), diploid regions (AB), and amplification regions (AAB, AABB). These correspond to '1:1', '2:1', '2:0' and '2:2' in “Major:minor” notation. Karyotypes are subset by their size (normalized for the number of input mutations), and by default karyotypes smaller than 5% of the actual mutational burden are not considered

A Kernel-density method (unitary adjustment, Gaussian kernel) is used to smooth the data distribution, and the peakPick: Peak Picking Methods Inspired by Biological Data package is used to determine peaks in the smoothed density. Peaks below a mnimum density (noise and miscalled segments) are filtered, and the others are matched to a predefined location with some tolerance (e.g., plus/minus 0.5 * epsilon, where epsilon = 0.015 is the default).

Theis analysis produces a set of scores that account for karyotype size and peaks offset, and that can be combined into a linear model to compute an overall QC metrics, called rho.

print(x)
#> $reference_genome
#> [1] "hg19"
#> 
#> $snvs
#> # A tibble: 12,963 x 17
#>    chr      from      to ref   alt   FILTER    DP    NV    VAF ANNOVAR_FUNCTION
#>    <chr>   <dbl>   <dbl> <chr> <chr> <chr>  <dbl> <dbl>  <dbl> <chr>           
#>  1 chr1  1027104 1027105 T     G     PASS      60     6 0.1    UTR5            
#>  2 chr1  2248588 2248589 A     C     PASS     127     9 0.0709 intergenic      
#>  3 chr1  2461999 2462000 G     A     PASS     156    65 0.417  upstream        
#>  4 chr1  2727935 2727936 T     C     PASS     180    90 0.5    downstream      
#>  5 chr1  2763397 2763398 C     T     PASS     183    61 0.333  intergenic      
#>  6 chr1  2768208 2768209 C     T     PASS     203   130 0.640  intergenic      
#>  7 chr1  2935590 2935591 C     T     PASS     228   132 0.579  intergenic      
#>  8 chr1  2980032 2980033 C     T     PASS     196    85 0.434  ncRNA_exonic    
#>  9 chr1  3387161 3387162 T     G     PASS     124     6 0.0484 intronic        
#> 10 chr1  3502517 3502518 G     A     PASS      88    10 0.114  intronic        
#> # … with 12,953 more rows, and 7 more variables: GENE <chr>, is_driver <lgl>,
#> #   driver_label <chr>, gene <chr>, type <chr>, karyotype <chr>,
#> #   segment_id <chr>
#> 
#> $cna
#> # A tibble: 267 x 10
#>    chr      from      to length covRatio Major minor   CCF segment_id          n
#>    <chr>   <int>   <int>  <int>    <dbl> <dbl> <dbl> <dbl> <chr>           <int>
#>  1 chr1   8.40e5  1.69e6 8.50e5     1.19     3     2     1 chr1:840009:16…     1
#>  2 chr1   1.69e6  1.82e6 1.25e5     1.26     3     2     1 chr1:1689988:1…    NA
#>  3 chr1   1.82e6  9.80e6 7.98e6     1.19     3     2     1 chr1:1815016:9…    28
#>  4 chr1   1.05e7  1.21e7 1.60e6     1.19     3     2     1 chr1:10479910:…     1
#>  5 chr1   1.21e7  1.22e7 7.51e4     1.24     3     2     1 chr1:12079917:…    NA
#>  6 chr1   1.22e7  1.28e7 6.85e5     1.19     3     2     1 chr1:12154981:…    NA
#>  7 chr1   1.38e7  1.78e7 4.01e6     1.19     3     2     1 chr1:13780016:…     7
#>  8 chr1   1.78e7  2.11e7 3.23e6     1.19     3     2     1 chr1:17849962:…    12
#>  9 chr1   2.11e7  2.16e7 4.80e5     1.26     3     2     1 chr1:21080068:…    NA
#> 10 chr1   2.16e7  2.48e7 3.27e6     1.19     3     2     1 chr1:21559998:…    11
#> # … with 257 more rows
…
