4. Computation of Cancer Cell Fractions • CNAqc
…
We set \(m=1\) for \(x \leq \hat{p}\), and \(m=2\) otherwise. Since there are no NA assignments, the computation is always scored PASS for quality check.

Example entropy computation

We work with the template dataset.

#>  [ CNAqc - CNA Quality Check ]
#> $reference_genome
#> [1] "hg19"
#> 
#> $snvs
#> # A tibble: 12,963 x 17
#>    chr      from      to ref   alt   FILTER    DP    NV    VAF ANNOVAR_FUNCTION
#>    <chr>   <dbl>   <dbl> <chr> <chr> <chr>  <dbl> <dbl>  <dbl> <chr>           
#>  1 chr1  1027104 1027105 T     G     PASS      60     6 0.1    UTR5            
#>  2 chr1  2248588 2248589 A     C     PASS     127     9 0.0709 intergenic      
#>  3 chr1  2461999 2462000 G     A     PASS     156    65 0.417  upstream        
#>  4 chr1  2727935 2727936 T     C     PASS     180    90 0.5    downstream      
#>  5 chr1  2763397 2763398 C     T     PASS     183    61 0.333  intergenic      
#>  6 chr1  2768208 2768209 C     T     PASS     203   130 0.640  intergenic      
#>  7 chr1  2935590 2935591 C     T     PASS     228   132 0.579  intergenic      
#>  8 chr1  2980032 2980033 C     T     PASS     196    85 0.434  ncRNA_exonic    
#>  9 chr1  3387161 3387162 T     G     PASS     124     6 0.0484 intronic        
#> 10 chr1  3502517 3502518 G     A     PASS      88    10 0.114  intronic        
#> # … with 12,953 more rows, and 7 more variables: GENE <chr>, is_driver <lgl>,
#> #   driver_label <chr>, gene <chr>, type <chr>, karyotype <chr>,
#> #   segment_id <chr>
#> 
#> $cna
#> # A tibble: 267 x 10
#>    chr      from      to length covRatio Major minor   CCF segment_id          n
#>    <chr>   <int>   <int>  <int>    <dbl> <dbl> <dbl> <dbl> <chr>           <int>
#>  1 chr1   8.40e5  1.69e6 8.50e5     1.19     3     2     1 chr1:840009:16…     1
#>  2 chr1   1.69e6  1.82e6 1.25e5     1.26     3     2     1 chr1:1689988:1…    NA
#>  3 chr1   1.82e6  9.80e6 7.98e6     1.19     3     2     1 chr1:1815016:9…    28
#>  4 chr1   1.05e7  1.21e7 1.60e6     1.19     3     2     1 chr1:10479910:…     1
#>  5 chr1   1.21e7  1.22e7 7.51e4     1.24     3     2     1 chr1:12079917:…    NA
#>  6 chr1   1.22e7  1.28e7 6.85e5     1.19     3     2     1 chr1:12154981:…    NA
#>  7 chr1   1.38e7  1.78e7 4.01e6     1.19     3     2     1 chr1:13780016:…     7
#>  8 chr1   1.78e7  2.11e7 3.23e6     1.19     3     2     1 chr1:17849962:…    12
#>  9 chr1   2.11e7  2.16e7 4.80e5     1.26     3     2     1 chr1:21080068:…    NA
#> 10 chr1   2.16e7  2.48e7 3.27e6     1.19     3     2     1 chr1:21559998:…    11
#> # … with 257 more rows
…
# Print new object, it informs us of the available computation
print(x)
#> $reference_genome
#> [1] "hg19"
#> 
#> $snvs
#> # A tibble: 12,963 x 17
#>    chr      from      to ref   alt   FILTER    DP    NV    VAF ANNOVAR_FUNCTION
#>    <chr>   <dbl>   <dbl> <chr> <chr> <chr>  <dbl> <dbl>  <dbl> <chr>           
#>  1 chr1  1027104 1027105 T     G     PASS      60     6 0.1    UTR5            
#>  2 chr1  2248588 2248589 A     C     PASS     127     9 0.0709 intergenic      
#>  3 chr1  2461999 2462000 G     A     PASS     156    65 0.417  upstream        
#>  4 chr1  2727935 2727936 T     C     PASS     180    90 0.5    downstream      
#>  5 chr1  2763397 2763398 C     T     PASS     183    61 0.333  intergenic      
#>  6 chr1  2768208 2768209 C     T     PASS     203   130 0.640  intergenic      
#>  7 chr1  2935590 2935591 C     T     PASS     228   132 0.579  intergenic      
#>  8 chr1  2980032 2980033 C     T     PASS     196    85 0.434  ncRNA_exonic    
#>  9 chr1  3387161 3387162 T     G     PASS     124     6 0.0484 intronic        
#> 10 chr1  3502517 3502518 G     A     PASS      88    10 0.114  intronic        
#> # … with 12,953 more rows, and 7 more variables: GENE <chr>, is_driver <lgl>,
#> #   driver_label <chr>, gene <chr>, type <chr>, karyotype <chr>,
#> #   segment_id <chr>
#> 
#> $cna
#> # A tibble: 267 x 10
#>    chr      from      to length covRatio Major minor   CCF segment_id          n
#>    <chr>   <int>   <int>  <int>    <dbl> <dbl> <dbl> <dbl> <chr>           <int>
#>  1 chr1   8.40e5  1.69e6 8.50e5     1.19     3     2     1 chr1:840009:16…     1
#>  2 chr1   1.69e6  1.82e6 1.25e5     1.26     3     2     1 chr1:1689988:1…    NA
#>  3 chr1   1.82e6  9.80e6 7.98e6     1.19     3     2     1 chr1:1815016:9…    28
#>  4 chr1   1.05e7  1.21e7 1.60e6     1.19     3     2     1 chr1:10479910:…     1
#>  5 chr1   1.21e7  1.22e7 7.51e4     1.24     3     2     1 chr1:12079917:…    NA
#>  6 chr1   1.22e7  1.28e7 6.85e5     1.19     3     2     1 chr1:12154981:…    NA
#>  7 chr1   1.38e7  1.78e7 4.01e6     1.19     3     2     1 chr1:13780016:…     7
#>  8 chr1   1.78e7  2.11e7 3.23e6     1.19     3     2     1 chr1:17849962:…    12
#>  9 chr1   2.11e7  2.16e7 4.80e5     1.26     3     2     1 chr1:21080068:…    NA
#> 10 chr1   2.16e7  2.48e7 3.27e6     1.19     3     2     1 chr1:21559998:…    11
#> # … with 257 more rows
…
#>  9     1   106     225714 106:1    
#> 10     0     5     174002 5:0      
#> 11     2    69     172894 69:2     
#> 12     2    26     162913 26:2     
#> 13     2    16     130712 16:2     
#> 14     2    70      80103 70:2     
#> 15     1    99      75782 99:1     
#> 
#> $most_mutations_karyotype
#> [1] "2:2"
#> 
#> $CCF_estimates
#> $CCF_estimates$`2:0`
#> $CCF_estimates$`2:0`$mutations
#> # A tibble: 81 x 19
#>    chr       from       to ref   alt   FILTER    DP    NV   VAF ANNOVAR_FUNCTION
#>    <chr>    <dbl>    <dbl> <chr> <chr> <chr>  <dbl> <dbl> <dbl> <chr>           
#>  1 chr12 52097806 52097807 A     C     PASS      75     6 0.08  intronic        
#>  2 chr12 52518721 52518722 G     A     PASS      60    53 0.883 intergenic      
#>  3 chr12 53360455 53360456 C     T     PASS      82    75 0.915 intergenic      
#>  4 chr12 54790107 54790108 C     T     PASS      86    77 0.895 exonic          
#>  5 chr12 54790131 54790132 A     T     PASS      72    62 0.861 exonic          
#>  6 chr12 55400463 55400464 T     A     PASS      85    40 0.471 intergenic      
#>  7 chr12 57769765 57769766 C     T     PASS      73    62 0.849 intronic        
#>  8 chr12 58555290 58555291 C     T     PASS      65    51 0.785 intergenic      
#>  9 chr12 58579121 58579122 T     A     PASS      64    57 0.891 intergenic      
#> 10 chr12 59011655 59011656 G     A     PASS      54    44 0.815 ncRNA_intronic  
#> # … with 71 more rows, and 9 more variables: GENE <chr>, is_driver <lgl>,
#> #   driver_label <chr>, gene <chr>, type <chr>, karyotype <chr>,
#> #   segment_id <chr>, mutation_multiplicity <dbl>, CCF <dbl>
…
#> 
#> $CCF_estimates$`2:0`$params$method
#> [1] "ENTROPY"
#> 
#> 
#> $CCF_estimates$`2:0`$QC_table
#> # A tibble: 1 x 6
#>   karyotype     N Unknown p_Unkown QC    method 
#>   <chr>     <int>   <dbl>    <dbl> <chr> <chr>  
#> 1 2:0          81       0        0 PASS  ENTROPY
#> 
#> 
#> $CCF_estimates$`2:1`
#> $CCF_estimates$`2:1`$mutations
#> # A tibble: 1,563 x 19
#>    chr      from      to ref   alt   FILTER    DP    NV    VAF ANNOVAR_FUNCTION
#>    <chr>   <dbl>   <dbl> <chr> <chr> <chr>  <dbl> <dbl>  <dbl> <chr>           
#>  1 chr2   357969  357970 C     A     PASS     104    58 0.558  intergenic      
#>  2 chr2   909304  909305 A     G     PASS      15     7 0.467  ncRNA_intronic  
#>  3 chr2  1035751 1035752 C     T     PASS      93    57 0.613  intronic        
#>  4 chr2  1326719 1326720 A     T     PASS     104    55 0.529  intronic        
#>  5 chr2  1515962 1515963 C     T     PASS      90    50 0.556  intronic        
#>  6 chr2  2198361 2198362 G     T     PASS     125    42 0.336  intronic        
#>  7 chr2  2898536 2898537 C     T     PASS     109    58 0.532  downstream      
#>  8 chr2  3125481 3125482 A     G     PASS     134    35 0.261  ncRNA_intronic  
#>  9 chr2  3832360 3832361 A     T     PASS     120    68 0.567  intergenic      
#> 10 chr2  3878408 3878409 T     A     PASS     126    10 0.0794 intergenic      
#> # … with 1,553 more rows, and 9 more variables: GENE <chr>, is_driver <lgl>,
#> #   driver_label <chr>, gene <chr>, type <chr>, karyotype <chr>,
#> #   segment_id <chr>, mutation_multiplicity <dbl>, CCF <dbl>
…
#> 
#> $CCF_estimates$`2:1`$params$method
#> [1] "ENTROPY"
#> 
#> 
#> $CCF_estimates$`2:1`$QC_table
#> # A tibble: 1 x 6
#>   karyotype     N Unknown p_Unkown QC    method 
#>   <chr>     <int>   <dbl>    <dbl> <chr> <chr>  
#> 1 2:1        1563      22   0.0141 PASS  ENTROPY
#> 
#> 
#> $CCF_estimates$`2:2`
#> $CCF_estimates$`2:2`$mutations
#> # A tibble: 7,478 x 19
#>    chr      from      to ref   alt   FILTER    DP    NV    VAF ANNOVAR_FUNCTION
#>    <chr>   <dbl>   <dbl> <chr> <chr> <chr>  <dbl> <dbl>  <dbl> <chr>           
#>  1 chr4    54939   54940 C     A     PASS     718    44 0.0613 intronic        
#>  2 chr4   573969  573970 G     C     PASS     164    16 0.0976 intergenic      
#>  3 chr4  1108141 1108142 G     A     PASS     157    66 0.420  ncRNA_intronic  
#>  4 chr4  1395352 1395353 C     T     PASS     178    93 0.522  intergenic      
#>  5 chr4  1537972 1537973 G     A     PASS     155    68 0.439  intergenic      
#>  6 chr4  1565793 1565794 C     T     PASS     172    77 0.448  intergenic      
#>  7 chr4  1600312 1600313 G     A     PASS     139    61 0.439  intergenic      
#>  8 chr4  1801455 1801456 G     A     PASS     161    79 0.491  intronic        
#>  9 chr4  2289980 2289981 C     T     PASS     168    74 0.440  intronic        
#> 10 chr4  2358143 2358144 T     G     PASS     100     6 0.06   intronic        
#> # … with 7,468 more rows, and 9 more variables: GENE <chr>, is_driver <lgl>,
#> #   driver_label <chr>, gene <chr>, type <chr>, karyotype <chr>,
#> #   segment_id <chr>, mutation_multiplicity <dbl>, CCF <dbl>
…
We can visually inspect the CCF estimates for the computed karyotypes. We can do that accessing the field x$CCF_estimates which contains the data and a plot reporting the result of the analysis, or using the getter functions CCF and two plotting functions

The tibble of the data reports the computed values in column "CCF", and in column "mutation multiplicity".

# Tibble
CCF(x) %>% select(VAF, mutation_multiplicity, CCF)
#> # A tibble: 9,122 x 3
#>      VAF mutation_multiplicity   CCF
#>    <dbl>                 <dbl> <dbl>
#>  1 0.08                      1 0.180
#>  2 0.883                     2 0.993
#>  3 0.915                     2 1.03 
#>  4 0.895                     2 1.01 
#>  5 0.861                     2 0.968
#>  6 0.471                     1 1.06 
#>  7 0.849                     2 0.954
#>  8 0.785                     2 0.882
#>  9 0.891                     2 1.00 
#> 10 0.815                     2 0.916
#> # … with 9,112 more rows
…
print(x_r)
#> $reference_genome
#> [1] "hg19"
#> 
#> $snvs
#> # A tibble: 12,963 x 17
#>    chr      from      to ref   alt   FILTER    DP    NV    VAF ANNOVAR_FUNCTION
#>    <chr>   <dbl>   <dbl> <chr> <chr> <chr>  <dbl> <dbl>  <dbl> <chr>           
#>  1 chr1  1027104 1027105 T     G     PASS      60     6 0.1    UTR5            
#>  2 chr1  2248588 2248589 A     C     PASS     127     9 0.0709 intergenic      
#>  3 chr1  2461999 2462000 G     A     PASS     156    65 0.417  upstream        
#>  4 chr1  2727935 2727936 T     C     PASS     180    90 0.5    downstream      
#>  5 chr1  2763397 2763398 C     T     PASS     183    61 0.333  intergenic      
#>  6 chr1  2768208 2768209 C     T     PASS     203   130 0.640  intergenic      
#>  7 chr1  2935590 2935591 C     T     PASS     228   132 0.579  intergenic      
#>  8 chr1  2980032 2980033 C     T     PASS     196    85 0.434  ncRNA_exonic    
#>  9 chr1  3387161 3387162 T     G     PASS     124     6 0.0484 intronic        
#> 10 chr1  3502517 3502518 G     A     PASS      88    10 0.114  intronic        
#> # … with 12,953 more rows, and 7 more variables: GENE <chr>, is_driver <lgl>,
#> #   driver_label <chr>, gene <chr>, type <chr>, karyotype <chr>,
#> #   segment_id <chr>
#> 
#> $cna
#> # A tibble: 267 x 10
#>    chr      from      to length covRatio Major minor   CCF segment_id          n
#>    <chr>   <int>   <int>  <int>    <dbl> <dbl> <dbl> <dbl> <chr>           <int>
#>  1 chr1   8.40e5  1.69e6 8.50e5     1.19     3     2     1 chr1:840009:16…     1
#>  2 chr1   1.69e6  1.82e6 1.25e5     1.26     3     2     1 chr1:1689988:1…    NA
#>  3 chr1   1.82e6  9.80e6 7.98e6     1.19     3     2     1 chr1:1815016:9…    28
#>  4 chr1   1.05e7  1.21e7 1.60e6     1.19     3     2     1 chr1:10479910:…     1
#>  5 chr1   1.21e7  1.22e7 7.51e4     1.24     3     2     1 chr1:12079917:…    NA
#>  6 chr1   1.22e7  1.28e7 6.85e5     1.19     3     2     1 chr1:12154981:…    NA
#>  7 chr1   1.38e7  1.78e7 4.01e6     1.19     3     2     1 chr1:13780016:…     7
#>  8 chr1   1.78e7  2.11e7 3.23e6     1.19     3     2     1 chr1:17849962:…    12
#>  9 chr1   2.11e7  2.16e7 4.80e5     1.26     3     2     1 chr1:21080068:…    NA
#> 10 chr1   2.16e7  2.48e7 3.27e6     1.19     3     2     1 chr1:21559998:…    11
#> # … with 257 more rows
…
#>  9     1   106     225714 106:1    
#> 10     0     5     174002 5:0      
#> 11     2    69     172894 69:2     
#> 12     2    26     162913 26:2     
#> 13     2    16     130712 16:2     
#> 14     2    70      80103 70:2     
#> 15     1    99      75782 99:1     
#> 
#> $most_mutations_karyotype
#> [1] "2:2"
#> 
#> $CCF_estimates
#> $CCF_estimates$`2:0`
#> $CCF_estimates$`2:0`$mutations
#> # A tibble: 81 x 19
#>    chr       from       to ref   alt   FILTER    DP    NV   VAF ANNOVAR_FUNCTION
#>    <chr>    <dbl>    <dbl> <chr> <chr> <chr>  <dbl> <dbl> <dbl> <chr>           
#>  1 chr12 52097806 52097807 A     C     PASS      75     6 0.08  intronic        
#>  2 chr12 52518721 52518722 G     A     PASS      60    53 0.883 intergenic      
#>  3 chr12 53360455 53360456 C     T     PASS      82    75 0.915 intergenic      
#>  4 chr12 54790107 54790108 C     T     PASS      86    77 0.895 exonic          
#>  5 chr12 54790131 54790132 A     T     PASS      72    62 0.861 exonic          
#>  6 chr12 55400463 55400464 T     A     PASS      85    40 0.471 intergenic      
#>  7 chr12 57769765 57769766 C     T     PASS      73    62 0.849 intronic        
#>  8 chr12 58555290 58555291 C     T     PASS      65    51 0.785 intergenic      
#>  9 chr12 58579121 58579122 T     A     PASS      64    57 0.891 intergenic      
#> 10 chr12 59011655 59011656 G     A     PASS      54    44 0.815 ncRNA_intronic  
#> # … with 71 more rows, and 9 more variables: GENE <chr>, is_driver <lgl>,
#> #   driver_label <chr>, gene <chr>, type <chr>, karyotype <chr>,
#> #   segment_id <chr>, mutation_multiplicity <dbl>, CCF <dbl>
…
#> 
#> $CCF_estimates$`2:0`$params$method
#> [1] "ROUGH"
#> 
#> 
#> $CCF_estimates$`2:0`$QC_table
#> # A tibble: 1 x 6
#>   karyotype     N Unknown p_Unkown QC    method
#>   <chr>     <int>   <dbl>    <dbl> <chr> <chr> 
#> 1 2:0          81       0        0 PASS  ROUGH 
#> 
#> 
#> $CCF_estimates$`2:1`
#> $CCF_estimates$`2:1`$mutations
#> # A tibble: 1,563 x 19
#>    chr      from      to ref   alt   FILTER    DP    NV    VAF ANNOVAR_FUNCTION
#>    <chr>   <dbl>   <dbl> <chr> <chr> <chr>  <dbl> <dbl>  <dbl> <chr>           
#>  1 chr2   357969  357970 C     A     PASS     104    58 0.558  intergenic      
#>  2 chr2   909304  909305 A     G     PASS      15     7 0.467  ncRNA_intronic  
#>  3 chr2  1035751 1035752 C     T     PASS      93    57 0.613  intronic        
#>  4 chr2  1326719 1326720 A     T     PASS     104    55 0.529  intronic        
#>  5 chr2  1515962 1515963 C     T     PASS      90    50 0.556  intronic        
#>  6 chr2  2198361 2198362 G     T     PASS     125    42 0.336  intronic        
#>  7 chr2  2898536 2898537 C     T     PASS     109    58 0.532  downstream      
#>  8 chr2  3125481 3125482 A     G     PASS     134    35 0.261  ncRNA_intronic  
#>  9 chr2  3832360 3832361 A     T     PASS     120    68 0.567  intergenic      
#> 10 chr2  3878408 3878409 T     A     PASS     126    10 0.0794 intergenic      
#> # … with 1,553 more rows, and 9 more variables: GENE <chr>, is_driver <lgl>,
#> #   driver_label <chr>, gene <chr>, type <chr>, karyotype <chr>,
#> #   segment_id <chr>, mutation_multiplicity <dbl>, CCF <dbl>
…
#> 
#> $CCF_estimates$`2:1`$params$method
#> [1] "ROUGH"
#> 
#> 
#> $CCF_estimates$`2:1`$QC_table
#> # A tibble: 1 x 6
#>   karyotype     N Unknown p_Unkown QC    method
#>   <chr>     <int>   <dbl>    <dbl> <chr> <chr> 
#> 1 2:1        1563       0        0 PASS  ROUGH 
#> 
#> 
#> $CCF_estimates$`2:2`
#> $CCF_estimates$`2:2`$mutations
#> # A tibble: 7,478 x 19
#>    chr      from      to ref   alt   FILTER    DP    NV    VAF ANNOVAR_FUNCTION
#>    <chr>   <dbl>   <dbl> <chr> <chr> <chr>  <dbl> <dbl>  <dbl> <chr>           
#>  1 chr4    54939   54940 C     A     PASS     718    44 0.0613 intronic        
#>  2 chr4   573969  573970 G     C     PASS     164    16 0.0976 intergenic      
#>  3 chr4  1108141 1108142 G     A     PASS     157    66 0.420  ncRNA_intronic  
#>  4 chr4  1395352 1395353 C     T     PASS     178    93 0.522  intergenic      
#>  5 chr4  1537972 1537973 G     A     PASS     155    68 0.439  intergenic      
#>  6 chr4  1565793 1565794 C     T     PASS     172    77 0.448  intergenic      
#>  7 chr4  1600312 1600313 G     A     PASS     139    61 0.439  intergenic      
#>  8 chr4  1801455 1801456 G     A     PASS     161    79 0.491  intronic        
#>  9 chr4  2289980 2289981 C     T     PASS     168    74 0.440  intronic        
#> 10 chr4  2358143 2358144 T     G     PASS     100     6 0.06   intronic        
#> # … with 7,468 more rows, and 9 more variables: GENE <chr>, is_driver <lgl>,
#> #   driver_label <chr>, gene <chr>, type <chr>, karyotype <chr>,
#> #   segment_id <chr>, mutation_multiplicity <dbl>, CCF <dbl>
…
# Recompute CCF values
y_e = compute_CCF(x_s, method = 'ENTROPY', karyotypes = '2:2')
#> ── Computing mutation multiplicity for karyotype 2:2 using the entropy method. ─
#> ℹ Expected Binomial peak(s) for these calls (1 and 2 copies): 0.235449735449735 and 0.470899470899471
#> ℹ Mixing pre/ post aneuploidy: 0.1 and 0.9
#> ℹ Not assignamble area: [0.258823529411765; 0.388235294117647]
y_r = compute_CCF(x_s, method = 'ROUGH', karyotypes = '2:2')
#> ── Computing mutation multiplicity for karyotype 2:2 using raw VAF cuts. ───────
#> ℹ Expected Binomial peak(s) for these calls (1 and 2 copies): 0.235449735449735 and 0.470899470899471.
#> ℹ Mutations per peak: n = 717, n = 6412. The hard cut is t = 0.259130119839897.

CCF(y_e) %>% filter(!is.na(CCF))
#> # A tibble: 7,018 x 19
#>    chr      from      to ref   alt   FILTER    DP    NV    VAF ANNOVAR_FUNCTION
#>    <chr>   <dbl>   <dbl> <chr> <chr> <chr>  <dbl> <dbl>  <dbl> <chr>           
#>  1 chr4    54939   54940 C     A     PASS   431.   26.4 0.0613 intronic        
#>  2 chr4   573969  573970 G     C     PASS    98.4   9.6 0.0976 intergenic      
#>  3 chr4  1108141 1108142 G     A     PASS    94.2  39.6 0.420  ncRNA_intronic  
#>  4 chr4  1395352 1395353 C     T     PASS   107.   55.8 0.522  intergenic      
#>  5 chr4  1537972 1537973 G     A     PASS    93    40.8 0.439  intergenic      
#>  6 chr4  1565793 1565794 C     T     PASS   103.   46.2 0.448  intergenic      
#>  7 chr4  1600312 1600313 G     A     PASS    83.4  36.6 0.439  intergenic      
#>  8 chr4  1801455 1801456 G     A     PASS    96.6  47.4 0.491  intronic        
#>  9 chr4  2289980 2289981 C     T     PASS   101.   44.4 0.440  intronic        
#> 10 chr4  2358143 2358144 T     G     PASS    60     3.6 0.06   intronic        
#> # … with 7,008 more rows, and 9 more variables: GENE <chr>, is_driver <lgl>,
#> #   driver_label <chr>, gene <chr>, type <chr>, karyotype <chr>,
#> #   segment_id <chr>, mutation_multiplicity <dbl>, CCF <dbl>
…
