6. Genome fragmentation analysis • CNAqc
…
      Source: vignettes/a6_fragmentation.Rmd
      a6_fragmentation.Rmd

library(CNAqc)
#> ✔ Loading BMix, 'Binomial and Beta-Binomial univariate mixtures'. Support : <https://caravagn.github.io/BMix/>
#> ✔ Loading CNAqc, 'Copy Number Alteration quality check'. Support : <https://caravagn.github.io/CNAqc/>

We work with the template dataset.

#>  [ CNAqc - CNA Quality Check ]
#> $reference_genome
#> [1] "hg19"
#> 
#> $snvs
#> # A tibble: 12,963 x 17
#>    chr      from      to ref   alt   FILTER    DP    NV    VAF ANNOVAR_FUNCTION
#>    <chr>   <dbl>   <dbl> <chr> <chr> <chr>  <dbl> <dbl>  <dbl> <chr>           
#>  1 chr1  1027104 1027105 T     G     PASS      60     6 0.1    UTR5            
#>  2 chr1  2248588 2248589 A     C     PASS     127     9 0.0709 intergenic      
#>  3 chr1  2461999 2462000 G     A     PASS     156    65 0.417  upstream        
#>  4 chr1  2727935 2727936 T     C     PASS     180    90 0.5    downstream      
#>  5 chr1  2763397 2763398 C     T     PASS     183    61 0.333  intergenic      
#>  6 chr1  2768208 2768209 C     T     PASS     203   130 0.640  intergenic      
#>  7 chr1  2935590 2935591 C     T     PASS     228   132 0.579  intergenic      
#>  8 chr1  2980032 2980033 C     T     PASS     196    85 0.434  ncRNA_exonic    
#>  9 chr1  3387161 3387162 T     G     PASS     124     6 0.0484 intronic        
#> 10 chr1  3502517 3502518 G     A     PASS      88    10 0.114  intronic        
#> # … with 12,953 more rows, and 7 more variables: GENE <chr>, is_driver <lgl>,
#> #   driver_label <chr>, gene <chr>, type <chr>, karyotype <chr>,
#> #   segment_id <chr>
#> 
#> $cna
#> # A tibble: 267 x 10
#>    chr      from      to length covRatio Major minor   CCF segment_id          n
#>    <chr>   <int>   <int>  <int>    <dbl> <dbl> <dbl> <dbl> <chr>           <int>
#>  1 chr1   8.40e5  1.69e6 8.50e5     1.19     3     2     1 chr1:840009:16…     1
#>  2 chr1   1.69e6  1.82e6 1.25e5     1.26     3     2     1 chr1:1689988:1…    NA
#>  3 chr1   1.82e6  9.80e6 7.98e6     1.19     3     2     1 chr1:1815016:9…    28
#>  4 chr1   1.05e7  1.21e7 1.60e6     1.19     3     2     1 chr1:10479910:…     1
#>  5 chr1   1.21e7  1.22e7 7.51e4     1.24     3     2     1 chr1:12079917:…    NA
#>  6 chr1   1.22e7  1.28e7 6.85e5     1.19     3     2     1 chr1:12154981:…    NA
#>  7 chr1   1.38e7  1.78e7 4.01e6     1.19     3     2     1 chr1:13780016:…     7
#>  8 chr1   1.78e7  2.11e7 3.23e6     1.19     3     2     1 chr1:17849962:…    12
#>  9 chr1   2.11e7  2.16e7 4.80e5     1.26     3     2     1 chr1:21080068:…    NA
#> 10 chr1   2.16e7  2.48e7 3.27e6     1.19     3     2     1 chr1:21559998:…    11
#> # … with 257 more rows
…
print(x)
#> $reference_genome
#> [1] "hg19"
#> 
#> $snvs
#> # A tibble: 12,963 x 17
#>    chr      from      to ref   alt   FILTER    DP    NV    VAF ANNOVAR_FUNCTION
#>    <chr>   <dbl>   <dbl> <chr> <chr> <chr>  <dbl> <dbl>  <dbl> <chr>           
#>  1 chr1  1027104 1027105 T     G     PASS      60     6 0.1    UTR5            
#>  2 chr1  2248588 2248589 A     C     PASS     127     9 0.0709 intergenic      
#>  3 chr1  2461999 2462000 G     A     PASS     156    65 0.417  upstream        
#>  4 chr1  2727935 2727936 T     C     PASS     180    90 0.5    downstream      
#>  5 chr1  2763397 2763398 C     T     PASS     183    61 0.333  intergenic      
#>  6 chr1  2768208 2768209 C     T     PASS     203   130 0.640  intergenic      
#>  7 chr1  2935590 2935591 C     T     PASS     228   132 0.579  intergenic      
#>  8 chr1  2980032 2980033 C     T     PASS     196    85 0.434  ncRNA_exonic    
#>  9 chr1  3387161 3387162 T     G     PASS     124     6 0.0484 intronic        
#> 10 chr1  3502517 3502518 G     A     PASS      88    10 0.114  intronic        
#> # … with 12,953 more rows, and 7 more variables: GENE <chr>, is_driver <lgl>,
#> #   driver_label <chr>, gene <chr>, type <chr>, karyotype <chr>,
#> #   segment_id <chr>
#> 
#> $cna
#> # A tibble: 267 x 10
#>    chr      from      to length covRatio Major minor   CCF segment_id          n
#>    <chr>   <int>   <int>  <int>    <dbl> <dbl> <dbl> <dbl> <chr>           <int>
#>  1 chr1   8.40e5  1.69e6 8.50e5     1.19     3     2     1 chr1:840009:16…     1
#>  2 chr1   1.69e6  1.82e6 1.25e5     1.26     3     2     1 chr1:1689988:1…    NA
#>  3 chr1   1.82e6  9.80e6 7.98e6     1.19     3     2     1 chr1:1815016:9…    28
#>  4 chr1   1.05e7  1.21e7 1.60e6     1.19     3     2     1 chr1:10479910:…     1
#>  5 chr1   1.21e7  1.22e7 7.51e4     1.24     3     2     1 chr1:12079917:…    NA
#>  6 chr1   1.22e7  1.28e7 6.85e5     1.19     3     2     1 chr1:12154981:…    NA
#>  7 chr1   1.38e7  1.78e7 4.01e6     1.19     3     2     1 chr1:13780016:…     7
#>  8 chr1   1.78e7  2.11e7 3.23e6     1.19     3     2     1 chr1:17849962:…    12
#>  9 chr1   2.11e7  2.16e7 4.80e5     1.26     3     2     1 chr1:21080068:…    NA
#> 10 chr1   2.16e7  2.48e7 3.27e6     1.19     3     2     1 chr1:21559998:…    11
#> # … with 257 more rows
…
#>  8     2    25     517926 25:2     
#>  9     1   106     225714 106:1    
#> 10     0     5     174002 5:0      
#> 11     2    69     172894 69:2     
#> 12     2    26     162913 26:2     
#> 13     2    16     130712 16:2     
#> 14     2    70      80103 70:2     
#> 15     1    99      75782 99:1     
#> 
#> $most_mutations_karyotype
#> [1] "2:2"
#> 
#> $arm_fragmentation
#> $arm_fragmentation$table
#> # A tibble: 41 x 10
#>    chr   arm   n_long n_short jumps total_segments testable  p_value
#>    <chr> <chr>  <dbl>   <dbl> <dbl>          <dbl> <lgl>       <dbl>
#>  1 chr7  p          0      34   206             34 TRUE     1.72e-24
#>  2 chr1  p          1      23     0             24 TRUE     1.63e-15
#>  3 chr1  q          1      12     5             13 TRUE     4.34e- 8
#>  4 chr12 q          1      11   414             12 TRUE     2.01e- 7
#>  5 chr8  p          1      10     0             11 TRUE     9.22e- 7
#>  6 chr11 q          2      11     0             13 TRUE     1.07e- 6
#>  7 chr3  q          2      10     2             12 TRUE     4.53e- 6
#>  8 chr7  q          2      10     3             12 TRUE     4.53e- 6
#>  9 chr11 p          1       8     0              9 FALSE    1.00e+ 0
#> 10 chr15 q          2       7     4              9 FALSE    1.00e+ 0
#> # … with 31 more rows, and 2 more variables: Bonferroni_cutoff <dbl>,
#> #   significant <lgl>
…
# Re-compute the fragmentation
x = detect_arm_overfragmentation(x)
#> ℹ One-tailed Binomial test: 2 tests, alpha 0.01. Short segments: 0.2% of the reference arm.
#> ✔ chr7p,  p = 4.52608e-06 ~ 12 segments, 10 short.
#> ✔ chr12q,  p = 4.19839999999999e-06 ~ 10 segments, 9 short.
#> ℹ 2 significantly overfragmented chromosome arms (alpha level 0.01).

print(x)
#> $reference_genome
#> [1] "hg19"
#> 
#> $snvs
#> # A tibble: 12,963 x 17
#>    chr      from      to ref   alt   FILTER    DP    NV    VAF ANNOVAR_FUNCTION
#>    <chr>   <dbl>   <dbl> <chr> <chr> <chr>  <dbl> <dbl>  <dbl> <chr>           
#>  1 chr1  1027104 1027105 T     G     PASS      60     6 0.1    UTR5            
#>  2 chr1  2248588 2248589 A     C     PASS     127     9 0.0709 intergenic      
#>  3 chr1  2461999 2462000 G     A     PASS     156    65 0.417  upstream        
#>  4 chr1  2727935 2727936 T     C     PASS     180    90 0.5    downstream      
#>  5 chr1  2763397 2763398 C     T     PASS     183    61 0.333  intergenic      
#>  6 chr1  2768208 2768209 C     T     PASS     203   130 0.640  intergenic      
#>  7 chr1  2935590 2935591 C     T     PASS     228   132 0.579  intergenic      
#>  8 chr1  2980032 2980033 C     T     PASS     196    85 0.434  ncRNA_exonic    
#>  9 chr1  3387161 3387162 T     G     PASS     124     6 0.0484 intronic        
#> 10 chr1  3502517 3502518 G     A     PASS      88    10 0.114  intronic        
#> # … with 12,953 more rows, and 7 more variables: GENE <chr>, is_driver <lgl>,
#> #   driver_label <chr>, gene <chr>, type <chr>, karyotype <chr>,
#> #   segment_id <chr>
#> 
#> $cna
#> # A tibble: 87 x 10
#>    chr      from      to  length covRatio Major minor   CCF segment_id         n
#>    <chr>   <int>   <int>   <int>    <dbl> <dbl> <dbl> <dbl> <chr>          <int>
#>  1 chr1   8.40e5  1.21e8  1.20e8    1.19      3     2     1 chr1:840009:1…   402
#>  2 chr1   1.45e8  1.46e8  8.20e5    1.04      2     2     1 chr1:14492008…    NA
#>  3 chr1   1.47e8  1.48e8  1.20e6    1.19      3     2     1 chr1:14663001…     2
#>  4 chr1   1.50e8  1.86e8  3.57e7    1.19      3     2     1 chr1:14981506…   124
#>  5 chr1   1.86e8  1.95e8  9.59e6    0.729     3     0     1 chr1:18555902…    20
#>  6 chr1   1.95e8  2.49e8  5.38e7    1.19      3     2     1 chr1:19537336…   169
#>  7 chr10  1.30e5  3.86e7  3.85e7    0.729     3     0     1 chr10:130013:…    95
#>  8 chr10  4.24e7  4.62e7  3.75e6    0.729     3     0     1 chr10:4241000…    12
#>  9 chr10  4.83e7  1.35e8  8.71e7    0.729     3     0     1 chr10:4831017…   185
#> 10 chr11  1.90e5  4.89e7  4.87e7    0.731     2     1     1 chr11:190010:…   183
#> # … with 77 more rows
…
#> 11     2    69     172892 69:2     
#> 12     2    26     162912 26:2     
#> 13     2    16     130711 16:2     
#> 14     2    70      80102 70:2     
#> 15     1    99      75781 99:1     
#> 
#> $most_mutations_karyotype
#> [1] "2:2"
#> 
#> $before_smoothing
#> $reference_genome
#> [1] "hg19"
#> 
#> $snvs
#> # A tibble: 12,963 x 17
#>    chr      from      to ref   alt   FILTER    DP    NV    VAF ANNOVAR_FUNCTION
#>    <chr>   <dbl>   <dbl> <chr> <chr> <chr>  <dbl> <dbl>  <dbl> <chr>           
#>  1 chr1  1027104 1027105 T     G     PASS      60     6 0.1    UTR5            
#>  2 chr1  2248588 2248589 A     C     PASS     127     9 0.0709 intergenic      
#>  3 chr1  2461999 2462000 G     A     PASS     156    65 0.417  upstream        
#>  4 chr1  2727935 2727936 T     C     PASS     180    90 0.5    downstream      
#>  5 chr1  2763397 2763398 C     T     PASS     183    61 0.333  intergenic      
#>  6 chr1  2768208 2768209 C     T     PASS     203   130 0.640  intergenic      
#>  7 chr1  2935590 2935591 C     T     PASS     228   132 0.579  intergenic      
#>  8 chr1  2980032 2980033 C     T     PASS     196    85 0.434  ncRNA_exonic    
#>  9 chr1  3387161 3387162 T     G     PASS     124     6 0.0484 intronic        
#> 10 chr1  3502517 3502518 G     A     PASS      88    10 0.114  intronic        
#> # … with 12,953 more rows, and 7 more variables: GENE <chr>, is_driver <lgl>,
#> #   driver_label <chr>, gene <chr>, type <chr>, karyotype <chr>,
#> #   segment_id <chr>
#> 
#> $cna
#> # A tibble: 267 x 10
#>    chr      from      to length covRatio Major minor   CCF segment_id          n
#>    <chr>   <int>   <int>  <int>    <dbl> <dbl> <dbl> <dbl> <chr>           <int>
#>  1 chr1   8.40e5  1.69e6 8.50e5     1.19     3     2     1 chr1:840009:16…     1
#>  2 chr1   1.69e6  1.82e6 1.25e5     1.26     3     2     1 chr1:1689988:1…    NA
#>  3 chr1   1.82e6  9.80e6 7.98e6     1.19     3     2     1 chr1:1815016:9…    28
#>  4 chr1   1.05e7  1.21e7 1.60e6     1.19     3     2     1 chr1:10479910:…     1
#>  5 chr1   1.21e7  1.22e7 7.51e4     1.24     3     2     1 chr1:12079917:…    NA
#>  6 chr1   1.22e7  1.28e7 6.85e5     1.19     3     2     1 chr1:12154981:…    NA
#>  7 chr1   1.38e7  1.78e7 4.01e6     1.19     3     2     1 chr1:13780016:…     7
#>  8 chr1   1.78e7  2.11e7 3.23e6     1.19     3     2     1 chr1:17849962:…    12
#>  9 chr1   2.11e7  2.16e7 4.80e5     1.26     3     2     1 chr1:21080068:…    NA
#> 10 chr1   2.16e7  2.48e7 3.27e6     1.19     3     2     1 chr1:21559998:…    11
#> # … with 257 more rows
…
#>  8     2    25     517926 25:2     
#>  9     1   106     225714 106:1    
#> 10     0     5     174002 5:0      
#> 11     2    69     172894 69:2     
#> 12     2    26     162913 26:2     
#> 13     2    16     130712 16:2     
#> 14     2    70      80103 70:2     
#> 15     1    99      75782 99:1     
#> 
#> $most_mutations_karyotype
#> [1] "2:2"
#> 
#> $arm_fragmentation
#> $arm_fragmentation$table
#> # A tibble: 41 x 10
#>    chr   arm   n_long n_short jumps total_segments testable  p_value
#>    <chr> <chr>  <dbl>   <dbl> <dbl>          <dbl> <lgl>       <dbl>
#>  1 chr7  p          0      34   206             34 TRUE     1.72e-24
#>  2 chr1  p          1      23     0             24 TRUE     1.63e-15
#>  3 chr1  q          1      12     5             13 TRUE     4.34e- 8
#>  4 chr12 q          1      11   414             12 TRUE     2.01e- 7
#>  5 chr8  p          1      10     0             11 TRUE     9.22e- 7
#>  6 chr11 q          2      11     0             13 TRUE     1.07e- 6
#>  7 chr3  q          2      10     2             12 TRUE     4.53e- 6
#>  8 chr7  q          2      10     3             12 TRUE     4.53e- 6
#>  9 chr11 p          1       8     0              9 FALSE    1.00e+ 0
#> 10 chr15 q          2       7     4              9 FALSE    1.00e+ 0
#> # … with 31 more rows, and 2 more variables: Bonferroni_cutoff <dbl>,
#> #   significant <lgl>
…
#> [1] 8
#> 
#> $arm_fragmentation$genome_percentage_cutoff
#> [1] 0.2
#> 
#> $arm_fragmentation$minimum_segments_for_testing
#> [1] 10
#> 
#> 
#> attr(,"class")
#> [1] "cnaqc"
#> 
#> $arm_fragmentation
#> $arm_fragmentation$table
#> # A tibble: 41 x 10
#>    chr   arm   n_long n_short jumps total_segments testable    p_value
#>    <chr> <chr>  <dbl>   <dbl> <dbl>          <dbl> <lgl>         <dbl>
#>  1 chr12 q          1       9   414             10 TRUE     0.00000420
#>  2 chr7  p          2      10   206             12 TRUE     0.00000453
#>  3 chr1  q          2       3     5              5 FALSE    1         
#>  4 chr17 p          3       2     8              5 FALSE    1         
#>  5 chr7  q          2       3     3              5 FALSE    1         
#>  6 chr15 q          1       2     4              3 FALSE    1         
#>  7 chr2  q          2       1     2              3 FALSE    1         
#>  8 chr22 q          2       1     2              3 FALSE    1         
#>  9 chr3  q          2       1     2              3 FALSE    1         
#> 10 chr10 q          1       1     0              2 FALSE    1         
#> # … with 31 more rows, and 2 more variables: Bonferroni_cutoff <dbl>,
#> #   significant <lgl>
…
