7. Example data analysis • CNAqc
…
# A list for all samples available
names(sample_mutations) = sapply(sample_mutations, function(x) x$Indiv[1])
sample_mutations = sample_mutations[!is.na(names(sample_mutations))]

We have all the somatic mutations called for Set06.

print(sample_mutations)
#> $Set6_42
#> # A tibble: 33,245 x 46
#>    chr     from     to ref     alt       NV    DP    VAF   Key FR     MMLQ   TCR
#>    <chr>  <dbl>  <dbl> <chr>   <chr>  <dbl> <dbl>  <dbl> <int> <chr> <dbl> <int>
#>  1 chr1   30923  30924 G       T          2    41 0.0488     1 0.42…    37    98
#>  2 chr1   83906  83907 A       G          1    56 0.0179     2 0.28…    37   132
#>  3 chr1   83911  83930 AAGAGA… TAGAA…     2    59 0.0339     3 0.07…    37   133
#>  4 chr1   83933  83934 A       G          1    59 0.0169     4 0.00…   100   141
#>  5 chr1  137123 137124 T       G          5    44 0.114      5 0.14…    37    87
#>  6 chr1  797474 797475 G       T          6    75 0.08       6 0.12…    37   222
#>  7 chr1  809123 809124 G       A          2    92 0.0217     7 0.14…    37   235
#>  8 chr1  809135 809136 C       T          2    91 0.0220     8 0.14…    37   236
#>  9 chr1  812625 812642 GCTGTG… TCTGT…     1    90 0.0111     9 0.14…    37   223
#> 10 chr1  815277 815278 T       C         10    70 0.143     10 0.35…    37   196
#> # … with 33,235 more rows, and 34 more variables: HP <int>, WE <int>,
#> #   Source <chr>, FS <chr>, WS <int>, PP <chr>, TR <chr>, NF <chr>, TCF <int>,
#> #   NR <chr>, TC <int>, END <chr>, MGOF <chr>, SbPval <chr>, START <chr>,
#> #   ReadPosRankSum <chr>, MQ <chr>, QD <dbl>, SC <chr>, BRF <dbl>,
#> #   HapScore <chr>, Size <chr>, ID <chr>, QUAL <chr>, FILTER <chr>, INFO <chr>,
#> #   Indiv <chr>, gt_GT <chr>, gt_GQ <chr>, gt_GOF <chr>, gt_NR <chr>,
#> #   gt_GL <chr>, gt_NV <chr>, gt_GT_alleles <chr>
#> 
#> $Set6_44
#> # A tibble: 32,960 x 46
#>    chr     from     to ref   alt      NV    DP    VAF   Key FR      MMLQ   TCR
#>    <chr>  <dbl>  <dbl> <chr> <chr> <dbl> <dbl>  <dbl> <int> <chr>  <dbl> <int>
#>  1 chr1   30923  30924 G     T         2    20 0.1        1 0.4275    37    98
#>  2 chr1   83906  83907 A     G         3    39 0.0769     2 0.2857    37   132
#>  3 chr1   83933  83934 A     G         3    46 0.0652     4 0.0000   100   141
#>  4 chr1  137123 137124 T     G         1    29 0.0345     5 0.1438    37    87
#>  5 chr1  797474 797475 G     T         5    78 0.0641     6 0.1291    37   222
#>  6 chr1  809123 809124 G     A         3    67 0.0448     7 0.1429    37   235
#>  7 chr1  809135 809136 C     T         2    66 0.0303     8 0.1429    37   236
#>  8 chr1  815277 815278 T     C         4    70 0.0571    10 0.3569    37   196
#>  9 chr1  815316 815319 GTT   ATC       3    80 0.0375    11 0.1403    37   191
#> 10 chr1  819221 819225 GTTA  ATTC      2    55 0.0364    12 0.0715    23   198
#> # … with 32,950 more rows, and 34 more variables: HP <int>, WE <int>,
#> #   Source <chr>, FS <chr>, WS <int>, PP <chr>, TR <chr>, NF <chr>, TCF <int>,
#> #   NR <chr>, TC <int>, END <chr>, MGOF <chr>, SbPval <chr>, START <chr>,
#> #   ReadPosRankSum <chr>, MQ <chr>, QD <dbl>, SC <chr>, BRF <dbl>,
#> #   HapScore <chr>, Size <chr>, ID <chr>, QUAL <chr>, FILTER <chr>, INFO <chr>,
#> #   Indiv <chr>, gt_GT <chr>, gt_GQ <chr>, gt_GOF <chr>, gt_NR <chr>,
#> #   gt_GL <chr>, gt_NV <chr>, gt_GT_alleles <chr>
#> 
#> $Set6_45
#> # A tibble: 32,782 x 46
#>    chr     from     to ref     alt       NV    DP    VAF   Key FR     MMLQ   TCR
#>    <chr>  <dbl>  <dbl> <chr>   <chr>  <dbl> <dbl>  <dbl> <int> <chr> <dbl> <int>
#>  1 chr1   30923  30924 G       T          2    42 0.0476     1 0.42…    37    98
#>  2 chr1   83906  83907 A       G          3    57 0.0526     2 0.28…    37   132
#>  3 chr1   83911  83930 AAGAGA… TAGAA…     5    57 0.0877     3 0.07…    37   133
#>  4 chr1   83933  83934 A       G          3    59 0.0508     4 0.00…   100   141
#>  5 chr1  137123 137124 T       G          3    34 0.0882     5 0.14…    37    87
#>  6 chr1  797474 797475 G       T          3    64 0.0469     6 0.12…    37   222
#>  7 chr1  809123 809124 G       A          3    71 0.0423     7 0.14…    37   235
#>  8 chr1  809135 809136 C       T          3    75 0.04       8 0.14…    37   236
#>  9 chr1  815277 815278 T       C          9    81 0.111     10 0.35…    37   196
#> 10 chr1  815316 815319 GTT     ATC        3    89 0.0337    11 0.14…    37   191
#> # … with 32,772 more rows, and 34 more variables: HP <int>, WE <int>,
#> #   Source <chr>, FS <chr>, WS <int>, PP <chr>, TR <chr>, NF <chr>, TCF <int>,
#> #   NR <chr>, TC <int>, END <chr>, MGOF <chr>, SbPval <chr>, START <chr>,
#> #   ReadPosRankSum <chr>, MQ <chr>, QD <dbl>, SC <chr>, BRF <dbl>,
#> #   HapScore <chr>, Size <chr>, ID <chr>, QUAL <chr>, FILTER <chr>, INFO <chr>,
#> #   Indiv <chr>, gt_GT <chr>, gt_GQ <chr>, gt_GOF <chr>, gt_NR <chr>,
#> #   gt_GL <chr>, gt_NV <chr>, gt_GT_alleles <chr>
#> 
#> $Set6_46
#> # A tibble: 33,907 x 46
#>    chr     from     to ref     alt       NV    DP    VAF   Key FR     MMLQ   TCR
#>    <chr>  <dbl>  <dbl> <chr>   <chr>  <dbl> <dbl>  <dbl> <int> <chr> <dbl> <int>
#>  1 chr1   30923  30924 G       T          2    22 0.0909     1 0.42…    37    98
#>  2 chr1   83906  83907 A       G          3    35 0.0857     2 0.28…    37   132
#>  3 chr1   83933  83934 A       G          6    38 0.158      4 0.00…   100   141
#>  4 chr1  137123 137124 T       G          1    30 0.0333     5 0.14…    37    87
#>  5 chr1  797474 797475 G       T          4    65 0.0615     6 0.12…    37   222
#>  6 chr1  809123 809124 G       A          6    96 0.0625     7 0.14…    37   235
#>  7 chr1  809135 809136 C       T          5    94 0.0532     8 0.14…    37   236
#>  8 chr1  812625 812642 GCTGTG… TCTGT…     3    87 0.0345     9 0.14…    37   223
#>  9 chr1  815277 815278 T       C         10    69 0.145     10 0.35…    37   196
#> 10 chr1  815316 815319 GTT     ATC        3    85 0.0353    11 0.14…    37   191
#> # … with 33,897 more rows, and 34 more variables: HP <int>, WE <int>,
#> #   Source <chr>, FS <chr>, WS <int>, PP <chr>, TR <chr>, NF <chr>, TCF <int>,
#> #   NR <chr>, TC <int>, END <chr>, MGOF <chr>, SbPval <chr>, START <chr>,
#> #   ReadPosRankSum <chr>, MQ <chr>, QD <dbl>, SC <chr>, BRF <dbl>,
#> #   HapScore <chr>, Size <chr>, ID <chr>, QUAL <chr>, FILTER <chr>, INFO <chr>,
#> #   Indiv <chr>, gt_GT <chr>, gt_GQ <chr>, gt_GOF <chr>, gt_NR <chr>,
#> #   gt_GL <chr>, gt_NV <chr>, gt_GT_alleles <chr>
#> 
#> $Set6_47
#> # A tibble: 32,814 x 46
#>    chr     from     to ref     alt       NV    DP    VAF   Key FR     MMLQ   TCR
#>    <chr>  <dbl>  <dbl> <chr>   <chr>  <dbl> <dbl>  <dbl> <int> <chr> <dbl> <int>
#>  1 chr1   30923  30924 G       T          3    12 0.25       1 0.42…    37    98
#>  2 chr1   83906  83907 A       G          6    41 0.146      2 0.28…    37   132
#>  3 chr1   83933  83934 A       G          7    39 0.179      4 0.00…   100   141
#>  4 chr1  137123 137124 T       G          7    38 0.184      5 0.14…    37    87
#>  5 chr1  797474 797475 G       T          4    68 0.0588     6 0.12…    37   222
#>  6 chr1  809123 809124 G       A          4    84 0.0476     7 0.14…    37   235
#>  7 chr1  809135 809136 C       T          2    84 0.0238     8 0.14…    37   236
#>  8 chr1  812625 812642 GCTGTG… TCTGT…     4    71 0.0563     9 0.14…    37   223
#>  9 chr1  815277 815278 T       C          6    67 0.0896    10 0.35…    37   196
#> 10 chr1  815316 815319 GTT     ATC        2    68 0.0294    11 0.14…    37   191
#> # … with 32,804 more rows, and 34 more variables: HP <int>, WE <int>,
#> #   Source <chr>, FS <chr>, WS <int>, PP <chr>, TR <chr>, NF <chr>, TCF <int>,
#> #   NR <chr>, TC <int>, END <chr>, MGOF <chr>, SbPval <chr>, START <chr>,
#> #   ReadPosRankSum <chr>, MQ <chr>, QD <dbl>, SC <chr>, BRF <dbl>,
#> #   HapScore <chr>, Size <chr>, ID <chr>, QUAL <chr>, FILTER <chr>, INFO <chr>,
#> #   Indiv <chr>, gt_GT <chr>, gt_GQ <chr>, gt_GOF <chr>, gt_NR <chr>,
#> #   gt_GL <chr>, gt_NV <chr>, gt_GT_alleles <chr>
#> 
#> $Set6_48
#> # A tibble: 32,859 x 46
#>    chr     from     to ref     alt       NV    DP    VAF   Key FR     MMLQ   TCR
#>    <chr>  <dbl>  <dbl> <chr>   <chr>  <dbl> <dbl>  <dbl> <int> <chr> <dbl> <int>
#>  1 chr1   30923  30924 G       T          3    14 0.214      1 0.42…    37    98
#>  2 chr1   83906  83907 A       G          2    28 0.0714     2 0.28…    37   132
#>  3 chr1   83933  83934 A       G          3    36 0.0833     4 0.00…   100   141
#>  4 chr1  137123 137124 T       G          2    36 0.0556     5 0.14…    37    87
#>  5 chr1  797474 797475 G       T          6    69 0.0870     6 0.12…    37   222
#>  6 chr1  809123 809124 G       A          5    76 0.0658     7 0.14…    37   235
#>  7 chr1  809135 809136 C       T          5    78 0.0641     8 0.14…    37   236
#>  8 chr1  812625 812642 GCTGTG… TCTGT…     1    62 0.0161     9 0.14…    37   223
#>  9 chr1  815277 815278 T       C          6    58 0.103     10 0.35…    37   196
#> 10 chr1  815316 815319 GTT     ATC        4    71 0.0563    11 0.14…    37   191
#> # … with 32,849 more rows, and 34 more variables: HP <int>, WE <int>,
#> #   Source <chr>, FS <chr>, WS <int>, PP <chr>, TR <chr>, NF <chr>, TCF <int>,
#> #   NR <chr>, TC <int>, END <chr>, MGOF <chr>, SbPval <chr>, START <chr>,
#> #   ReadPosRankSum <chr>, MQ <chr>, QD <dbl>, SC <chr>, BRF <dbl>,
#> #   HapScore <chr>, Size <chr>, ID <chr>, QUAL <chr>, FILTER <chr>, INFO <chr>,
#> #   Indiv <chr>, gt_GT <chr>, gt_GQ <chr>, gt_GOF <chr>, gt_NR <chr>,
#> #   gt_GL <chr>, gt_NV <chr>, gt_GT_alleles <chr>
…
We can load the calls for 2 solutions of sample Set6_42; we begin with our final, good solution.

Sequenza_URL = "https://raw.githubusercontent.com/caravagnalab/CNAqc_datasets/main/MSeq_Set06/Copy%20Number/"

# Final sequenza run (good calls)
Sequenza_good_calls = load_SQ_output(Sequenza_URL, sample = 'Set6_42', run = 'final')

print(Sequenza_good_calls)
#> $segments
#> # A tibble: 54 x 7
#>    chr        from        to Major minor   CNt      size
#>    <chr>     <dbl>     <dbl> <dbl> <dbl> <dbl>     <dbl>
#>  1 chr1    2847119  27674851     1     0     1  24827732
#>  2 chr1   27681534 120332727     1     1     2  92651193
#>  3 chr1  120333201 121485435     2     0     2   1152234
#>  4 chr1  142535470 246750621     1     1     2 104215151
#>  5 chr2    2500000  90500000     1     1     2  88000000
#>  6 chr2   96800000 240699373     1     1     2 143899373
#>  7 chr3    2500000  87900000     1     1     2  85400000
#>  8 chr3   93900000 195522430     1     1     2 101622430
#>  9 chr4    2500000  48200000     1     1     2  45700000
#> 10 chr4   52700000 188654276     1     1     2 135954276
#> # … with 44 more rows
…
print(x)
#> $reference_genome
#> [1] "GRCh38"
#> 
#> $snvs
#> # A tibble: 17,283 x 49
#>    chr      from      to ref   alt      NV    DP    VAF   Key FR      MMLQ   TCR
#>    <chr>   <dbl>   <dbl> <chr> <chr> <dbl> <dbl>  <dbl> <int> <chr>  <dbl> <int>
#>  1 chr1  3499870 3499871 G     A         9    71 0.127     67 0.1429    37   190
#>  2 chr1  3508373 3508374 A     G         3    34 0.0882    68 0.4285    37   100
#>  3 chr1  3634121 3634122 C     T        42    63 0.667     72 0.4286    37   184
#>  4 chr1  3643785 3643786 G     A        34    59 0.576     73 0.4286    37   184
#>  5 chr1  4161648 4161649 C     A        18    37 0.486     81 0.4286    37   160
#>  6 chr1  4580831 4580832 A     G        14    55 0.255     88 0.4286    23   155
#>  7 chr1  5068337 5068338 C     G         4    45 0.0889    91 0.3540    37   165
#>  8 chr1  5513535 5513536 A     T        10    44 0.227     95 0.0714    37   128
#>  9 chr1  5716827 5716828 T     G         3    53 0.0566    97 0.0714    37   158
#> 10 chr1  5727056 5727057 G     T         8    63 0.127     98 0.2093    37   180
#> # … with 17,273 more rows, and 37 more variables: HP <int>, WE <int>,
#> #   Source <chr>, FS <chr>, WS <int>, PP <chr>, TR <chr>, NF <chr>, TCF <int>,
#> #   NR <chr>, TC <int>, END <chr>, MGOF <chr>, SbPval <chr>, START <chr>,
#> #   ReadPosRankSum <chr>, MQ <chr>, QD <dbl>, SC <chr>, BRF <dbl>,
#> #   HapScore <chr>, Size <chr>, ID <chr>, QUAL <chr>, FILTER <chr>, INFO <chr>,
#> #   Indiv <chr>, gt_GT <chr>, gt_GQ <chr>, gt_GOF <chr>, gt_NR <chr>,
#> #   gt_GL <chr>, gt_NV <chr>, gt_GT_alleles <chr>, type <chr>, karyotype <chr>,
#> #   segment_id <chr>
#> 
#> $cna
#> # A tibble: 54 x 11
#>    chr      from      to Major minor   CNt   size   CCF length segment_id      n
#>    <chr>   <dbl>   <dbl> <dbl> <dbl> <dbl>  <dbl> <dbl>  <dbl> <chr>       <int>
#>  1 chr1   2.85e6  2.77e7     1     0     1 2.48e7     1 2.48e7 chr1:28471…   136
#>  2 chr1   2.77e7  1.20e8     1     1     2 9.27e7     1 9.27e7 chr1:27681…   490
#>  3 chr1   1.20e8  1.21e8     2     0     2 1.15e6     1 1.15e6 chr1:12033…    18
#>  4 chr1   1.43e8  2.47e8     1     1     2 1.04e8     1 1.04e8 chr1:14253…   641
#>  5 chr2   2.50e6  9.05e7     1     1     2 8.80e7     1 8.80e7 chr2:25000…   535
#>  6 chr2   9.68e7  2.41e8     1     1     2 1.44e8     1 1.44e8 chr2:96800…   815
#>  7 chr3   2.50e6  8.79e7     1     1     2 8.54e7     1 8.54e7 chr3:25000…   449
#>  8 chr3   9.39e7  1.96e8     1     1     2 1.02e8     1 1.02e8 chr3:93900…   592
#>  9 chr4   2.50e6  4.82e7     1     1     2 4.57e7     1 4.57e7 chr4:25000…   337
#> 10 chr4   5.27e7  1.89e8     1     1     2 1.36e8     1 1.36e8 chr4:52700…   894
#> # … with 44 more rows
…
print(x)
#> $reference_genome
#> [1] "GRCh38"
#> 
#> $snvs
#> # A tibble: 17,283 x 49
#>    chr      from      to ref   alt      NV    DP    VAF   Key FR      MMLQ   TCR
#>    <chr>   <dbl>   <dbl> <chr> <chr> <dbl> <dbl>  <dbl> <int> <chr>  <dbl> <int>
#>  1 chr1  3499870 3499871 G     A         9    71 0.127     67 0.1429    37   190
#>  2 chr1  3508373 3508374 A     G         3    34 0.0882    68 0.4285    37   100
#>  3 chr1  3634121 3634122 C     T        42    63 0.667     72 0.4286    37   184
#>  4 chr1  3643785 3643786 G     A        34    59 0.576     73 0.4286    37   184
#>  5 chr1  4161648 4161649 C     A        18    37 0.486     81 0.4286    37   160
#>  6 chr1  4580831 4580832 A     G        14    55 0.255     88 0.4286    23   155
#>  7 chr1  5068337 5068338 C     G         4    45 0.0889    91 0.3540    37   165
#>  8 chr1  5513535 5513536 A     T        10    44 0.227     95 0.0714    37   128
#>  9 chr1  5716827 5716828 T     G         3    53 0.0566    97 0.0714    37   158
#> 10 chr1  5727056 5727057 G     T         8    63 0.127     98 0.2093    37   180
#> # … with 17,273 more rows, and 37 more variables: HP <int>, WE <int>,
#> #   Source <chr>, FS <chr>, WS <int>, PP <chr>, TR <chr>, NF <chr>, TCF <int>,
#> #   NR <chr>, TC <int>, END <chr>, MGOF <chr>, SbPval <chr>, START <chr>,
#> #   ReadPosRankSum <chr>, MQ <chr>, QD <dbl>, SC <chr>, BRF <dbl>,
#> #   HapScore <chr>, Size <chr>, ID <chr>, QUAL <chr>, FILTER <chr>, INFO <chr>,
#> #   Indiv <chr>, gt_GT <chr>, gt_GQ <chr>, gt_GOF <chr>, gt_NR <chr>,
#> #   gt_GL <chr>, gt_NV <chr>, gt_GT_alleles <chr>, type <chr>, karyotype <chr>,
#> #   segment_id <chr>
#> 
#> $cna
#> # A tibble: 54 x 11
#>    chr      from      to Major minor   CNt   size   CCF length segment_id      n
#>    <chr>   <dbl>   <dbl> <dbl> <dbl> <dbl>  <dbl> <dbl>  <dbl> <chr>       <int>
#>  1 chr1   2.85e6  2.77e7     1     0     1 2.48e7     1 2.48e7 chr1:28471…   136
#>  2 chr1   2.77e7  1.20e8     1     1     2 9.27e7     1 9.27e7 chr1:27681…   490
#>  3 chr1   1.20e8  1.21e8     2     0     2 1.15e6     1 1.15e6 chr1:12033…    18
#>  4 chr1   1.43e8  2.47e8     1     1     2 1.04e8     1 1.04e8 chr1:14253…   641
#>  5 chr2   2.50e6  9.05e7     1     1     2 8.80e7     1 8.80e7 chr2:25000…   535
#>  6 chr2   9.68e7  2.41e8     1     1     2 1.44e8     1 1.44e8 chr2:96800…   815
#>  7 chr3   2.50e6  8.79e7     1     1     2 8.54e7     1 8.54e7 chr3:25000…   449
#>  8 chr3   9.39e7  1.96e8     1     1     2 1.02e8     1 1.02e8 chr3:93900…   592
#>  9 chr4   2.50e6  4.82e7     1     1     2 4.57e7     1 4.57e7 chr4:25000…   337
#> 10 chr4   5.27e7  1.89e8     1     1     2 1.36e8     1 1.36e8 chr4:52700…   894
#> # … with 44 more rows
…
print(x)
#> $reference_genome
#> [1] "GRCh38"
#> 
#> $snvs
#> # A tibble: 17,283 x 49
#>    chr      from      to ref   alt      NV    DP    VAF   Key FR      MMLQ   TCR
#>    <chr>   <dbl>   <dbl> <chr> <chr> <dbl> <dbl>  <dbl> <int> <chr>  <dbl> <int>
#>  1 chr1  3499870 3499871 G     A         9    71 0.127     67 0.1429    37   190
#>  2 chr1  3508373 3508374 A     G         3    34 0.0882    68 0.4285    37   100
#>  3 chr1  3634121 3634122 C     T        42    63 0.667     72 0.4286    37   184
#>  4 chr1  3643785 3643786 G     A        34    59 0.576     73 0.4286    37   184
#>  5 chr1  4161648 4161649 C     A        18    37 0.486     81 0.4286    37   160
#>  6 chr1  4580831 4580832 A     G        14    55 0.255     88 0.4286    23   155
#>  7 chr1  5068337 5068338 C     G         4    45 0.0889    91 0.3540    37   165
#>  8 chr1  5513535 5513536 A     T        10    44 0.227     95 0.0714    37   128
#>  9 chr1  5716827 5716828 T     G         3    53 0.0566    97 0.0714    37   158
#> 10 chr1  5727056 5727057 G     T         8    63 0.127     98 0.2093    37   180
#> # … with 17,273 more rows, and 37 more variables: HP <int>, WE <int>,
#> #   Source <chr>, FS <chr>, WS <int>, PP <chr>, TR <chr>, NF <chr>, TCF <int>,
#> #   NR <chr>, TC <int>, END <chr>, MGOF <chr>, SbPval <chr>, START <chr>,
#> #   ReadPosRankSum <chr>, MQ <chr>, QD <dbl>, SC <chr>, BRF <dbl>,
#> #   HapScore <chr>, Size <chr>, ID <chr>, QUAL <chr>, FILTER <chr>, INFO <chr>,
#> #   Indiv <chr>, gt_GT <chr>, gt_GQ <chr>, gt_GOF <chr>, gt_NR <chr>,
#> #   gt_GL <chr>, gt_NV <chr>, gt_GT_alleles <chr>, type <chr>, karyotype <chr>,
#> #   segment_id <chr>
#> 
#> $cna
#> # A tibble: 54 x 11
#>    chr      from      to Major minor   CNt   size   CCF length segment_id      n
#>    <chr>   <dbl>   <dbl> <dbl> <dbl> <dbl>  <dbl> <dbl>  <dbl> <chr>       <int>
#>  1 chr1   2.85e6  2.77e7     1     0     1 2.48e7     1 2.48e7 chr1:28471…   136
#>  2 chr1   2.77e7  1.20e8     1     1     2 9.27e7     1 9.27e7 chr1:27681…   490
#>  3 chr1   1.20e8  1.21e8     2     0     2 1.15e6     1 1.15e6 chr1:12033…    18
#>  4 chr1   1.43e8  2.47e8     1     1     2 1.04e8     1 1.04e8 chr1:14253…   641
#>  5 chr2   2.50e6  9.05e7     1     1     2 8.80e7     1 8.80e7 chr2:25000…   535
#>  6 chr2   9.68e7  2.41e8     1     1     2 1.44e8     1 1.44e8 chr2:96800…   815
#>  7 chr3   2.50e6  8.79e7     1     1     2 8.54e7     1 8.54e7 chr3:25000…   449
#>  8 chr3   9.39e7  1.96e8     1     1     2 1.02e8     1 1.02e8 chr3:93900…   592
#>  9 chr4   2.50e6  4.82e7     1     1     2 4.57e7     1 4.57e7 chr4:25000…   337
#> 10 chr4   5.27e7  1.89e8     1     1     2 1.36e8     1 1.36e8 chr4:52700…   894
#> # … with 44 more rows
…
