8. Annotatation of SNVs • CNAqc
…
# Then those two packages provide usefull utilities to deal with biological databases
if(!require("Organism.dplyr", character.only = TRUE))
  BiocManager::install("Organism.dplyr")
if(!require("org.Hs.eg.db", character.only = TRUE))
  BiocManager::install("org.Hs.eg.db")

Annotation phase

Now we have everything we can just run the function andget back our annotated file

snvs_annotated <- annotate_variants(snvs, ref = reference_genome)

snvs_annotated
#> # A tibble: 13,129 x 18
#>    chr       from      to ref   alt   FILTER    DP    NV    VAF ANNOVAR_FUNCTION
#>    <chr>    <dbl>   <dbl> <chr> <chr> <chr>  <dbl> <dbl>  <dbl> <chr>           
#>  1 chr16 67646006  6.76e7 C     T     PASS     120    54 0.45   exonic          
#>  2 chr17  7577106  7.58e6 G     C     PASS      84    78 0.929  exonic          
#>  3 chr19 50919900  5.09e7 C     T     PASS     145    61 0.421  exonic          
#>  4 chr1   1027104  1.03e6 T     G     PASS      60     6 0.1    UTR5            
#>  5 chr1   2461999  2.46e6 G     A     PASS     156    65 0.417  upstream        
#>  6 chr1   3387161  3.39e6 T     G     PASS     124     6 0.0484 intronic        
#>  7 chr1   3502517  3.50e6 G     A     PASS      88    10 0.114  intronic        
#>  8 chr1   4722897  4.72e6 G     A     PASS     186    75 0.403  intronic        
#>  9 chr1   6175539  6.18e6 C     T     PASS     155    54 0.348  intronic        
#> 10 chr1   6213216  6.21e6 G     A     PASS     184    98 0.533  intronic        
#> # … with 13,119 more rows, and 8 more variables: GENE <chr>, gene_symbol <chr>,
#> #   location <chr>, consequence <chr>, refAA <chr>, varAA <chr>,
#> #   driver_label <chr>, is_driver <lgl>

One thing to note is the presence of multiple locations and consequences for a single variant. This happens as we try to annotate the mutations in a transcript-agnostic manner, consequently we report all possible effects and locations for any transcript (separated by a : ). The drivers largely correspond to those previously noted (TP53 and CTCF) with some differences. Obviously using multiple annotations and validation guarantees more precise results.

We use the intogen database to annotate drivers, but you can costumize this behaviour in two way. First, drivers are annotated by tumor types, by default we use all the drivers but it is possible to specify the cancer type id. A list of tumor types and their codes is available in the package

data('intogen_ttypes', package = 'CNAqc')

intogen_ttypes
#> # A tibble: 66 x 2
#>    cancer_name                           intogen_code
#>    <chr>                                 <chr>       
#>  1 Adrenocortical carcinoma              ACC         
#>  2 Adenoid cystic carcinoma              ACY         
#>  3 Acute lymphoblastic leukemia          ALL         
#>  4 Acute myeloid leukemia                AML         
#>  5 Anus cancer                           AN          
#>  6 Angiosarcoma                          ANGS        
#>  7 Atypical teratoid/rhabdoid tumor      ATRT        
#>  8 Bowel cancer                          BC          
#>  9 Small intestine cancer neuroendocrine BCNET       
#> 10 Bladder cancer                        BLCA        
#> # … with 56 more rows

snvs_annotated_OV <- annotate_variants(snvs, ref = reference_genome, filter_tumor_type = "OV")

snvs_annotated_OV
#> # A tibble: 13,129 x 18
#>    chr      from      to ref   alt   FILTER    DP    NV    VAF ANNOVAR_FUNCTION
#>    <chr>   <dbl>   <dbl> <chr> <chr> <chr>  <dbl> <dbl>  <dbl> <chr>           
#>  1 chr17 7577106 7577107 G     C     PASS      84    78 0.929  exonic          
#>  2 chr1  1027104 1027105 T     G     PASS      60     6 0.1    UTR5            
#>  3 chr1  2461999 2462000 G     A     PASS     156    65 0.417  upstream        
#>  4 chr1  3387161 3387162 T     G     PASS     124     6 0.0484 intronic        
#>  5 chr1  3502517 3502518 G     A     PASS      88    10 0.114  intronic        
#>  6 chr1  4722897 4722898 G     A     PASS     186    75 0.403  intronic        
#>  7 chr1  6175539 6175540 C     T     PASS     155    54 0.348  intronic        
#>  8 chr1  6213216 6213217 G     A     PASS     184    98 0.533  intronic        
#>  9 chr1  6421856 6421857 C     T     PASS     174    56 0.322  intronic        
#> 10 chr1  6751814 6751815 T     A     PASS     190    38 0.2    intronic        
#> # … with 13,119 more rows, and 8 more variables: GENE <chr>, gene_symbol <chr>,
#> #   location <chr>, consequence <chr>, refAA <chr>, varAA <chr>,
#> #   driver_label <chr>, is_driver <lgl>

Another option is to supply your list of drivers as a one coloumn data.frame using the argument driver_list.

snvs_annotated_custom <- annotate_variants(snvs, ref = reference_genome, driver_list = as.data.frame(c("TP53", "CHDS")))

snvs_annotated_custom
#> # A tibble: 13,129 x 18
#>    chr      from      to ref   alt   FILTER    DP    NV    VAF ANNOVAR_FUNCTION
#>    <chr>   <dbl>   <dbl> <chr> <chr> <chr>  <dbl> <dbl>  <dbl> <chr>           
#>  1 chr17 7577106 7577107 G     C     PASS      84    78 0.929  exonic          
#>  2 chr1  1027104 1027105 T     G     PASS      60     6 0.1    UTR5            
#>  3 chr1  2461999 2462000 G     A     PASS     156    65 0.417  upstream        
#>  4 chr1  3387161 3387162 T     G     PASS     124     6 0.0484 intronic        
#>  5 chr1  3502517 3502518 G     A     PASS      88    10 0.114  intronic        
#>  6 chr1  4722897 4722898 G     A     PASS     186    75 0.403  intronic        
#>  7 chr1  6175539 6175540 C     T     PASS     155    54 0.348  intronic        
#>  8 chr1  6213216 6213217 G     A     PASS     184    98 0.533  intronic        
#>  9 chr1  6421856 6421857 C     T     PASS     174    56 0.322  intronic        
#> 10 chr1  6751814 6751815 T     A     PASS     190    38 0.2    intronic        
#> # … with 13,119 more rows, and 8 more variables: GENE <chr>, gene_symbol <chr>,
#> #   location <chr>, consequence <chr>, refAA <chr>, varAA <chr>,
#> #   driver_label <chr>, is_driver <lgl>
…
