10. multiCNAqc • CNAqc
…
Elements inside the mCNAqc object (for desired samples)
can be accessed through the get_sample function. It returns
a list of CNAqc objects. In this way, it is possible to obtain a joint
table with all the mutations across samples:

res = CNAqc::get_sample(example_multisample, 
           sample = get_sample_name(example_multisample), 
           which_obj = "shared")
#> 
#> ── Retrieving <CNAqc> objects with the new segmentation ────────────────────────

lapply(res, function(x) {CNAqc::Mutations(x)}) %>% 
  dplyr::bind_rows()
#> # A tibble: 25,976 × 51
#>    chr       from       to ref   alt      NV    DP   VAF Indiv   Key FR     MMLQ
#>    <chr>    <dbl>    <dbl> <chr> <chr> <dbl> <dbl> <dbl> <chr> <int> <chr> <dbl>
#>  1 chr1   3634121  3634122 C     T        42    63 0.667 Set6…    72 0.42…    37
#>  2 chr1   3643785  3643786 G     A        34    59 0.576 Set6…    73 0.42…    37
#>  3 chr1   4161648  4161649 C     A        18    37 0.486 Set6…    81 0.42…    37
#>  4 chr1   5513535  5513536 A     T        10    44 0.227 Set6…    95 0.07…    37
#>  5 chr1   5882139  5882140 C     T        35    55 0.636 Set6…   110 0.42…    37
#>  6 chr1   6595746  6595747 G     A        23    53 0.434 Set6…   122 0.42…    37
#>  7 chr1   7836836  7836837 C     T        18    35 0.514 Set6…   140 0.42…    37
#>  8 chr1   8570678  8570679 C     T        32    55 0.582 Set6…   149 0.42…    37
#>  9 chr1   9149650  9149651 T     G        45    59 0.763 Set6…   154 0.42…    37
#> 10 chr1  10218495 10218496 T     G        20    41 0.488 Set6…   167 0.42…    37
#> # ℹ 25,966 more rows
#> # ℹ 39 more variables: TCR <int>, HP <int>, WE <int>, Source <chr>, FS <chr>,
#> #   WS <int>, PP <chr>, TR <chr>, NF <chr>, TCF <int>, NR <chr>, TC <int>,
#> #   END <chr>, MGOF <chr>, SbPval <chr>, START <chr>, ReadPosRankSum <chr>,
#> #   MQ <chr>, QD <dbl>, SC <chr>, BRF <dbl>, HapScore <chr>, Size <chr>,
#> #   ID <chr>, QUAL <chr>, FILTER <chr>, INFO <chr>, gt_GT <chr>, gt_GQ <chr>,
#> #   gt_GOF <chr>, gt_NR <chr>, gt_GL <chr>, gt_NV <chr>, gt_GT_alleles <chr>, …
…
